<?xml version="1.0" encoding="utf-8"?>
<!-- Generator: Adobe Illustrator 22.0.1, SVG Export Plug-In . SVG Version: 6.00 Build 0)  -->
<svg version="1.1" id="Layer_1" xmlns="http://www.w3.org/2000/svg" xmlns:xlink="http://www.w3.org/1999/xlink" x="0px" y="0px"
	 width="10.52px" height="9.12px" viewBox="0 0 10.52 9.12" style="enable-background:new 0 0 10.52 9.12;" xml:space="preserve">
<style type="text/css">
	.st0{fill:#FFFFFF;}
</style>
<g>
	<path d="M0,0l5.26,9.12L10.52,0H0z M0.86,0.5h8.8l-4.4,7.62L0.86,0.5z"/>
	<polygon class="st0" points="9.66,0.5 5.26,8.12 0.86,0.5 	"/>
</g>
</svg>
