<?xml version="1.0" encoding="utf-8"?>
<!-- Generator: Adobe Illustrator 22.0.1, SVG Export Plug-In . SVG Version: 6.00 Build 0)  -->
<svg version="1.1" id="Layer_1" xmlns="http://www.w3.org/2000/svg" xmlns:xlink="http://www.w3.org/1999/xlink" x="0px" y="0px"
	 width="71.824px" height="30.903px" viewBox="0 0 71.824 30.903" style="enable-background:new 0 0 71.824 30.903;"
	 xml:space="preserve">
<style type="text/css">
	.st0{fill:#1D1D1B;}
	.st1{fill:none;}
</style>
<g>
	<g>
		<path class="st0" d="M27.136,30.903H15.556c-1.438,0-2.607-1.17-2.607-2.607V9.868c0-1.438,1.17-2.607,2.607-2.607h11.581
			c1.438,0,2.607,1.17,2.607,2.607v18.427C29.744,29.733,28.574,30.903,27.136,30.903z M15.556,8.761
			c-0.611,0-1.107,0.497-1.107,1.107v18.427c0,0.61,0.497,1.107,1.107,1.107h11.581c0.611,0,1.107-0.497,1.107-1.107V9.868
			c0-0.611-0.497-1.107-1.107-1.107H15.556z"/>
	</g>
	<circle class="st0" cx="21.346" cy="26.339" r="1.267"/>
	<g>
		<path class="st0" d="M7.138,30.903H1.832C0.822,30.903,0,30.081,0,29.071V15.856c0-1.01,0.822-1.832,1.832-1.832h5.306
			c1.01,0,1.832,0.822,1.832,1.832v13.215C8.97,30.081,8.148,30.903,7.138,30.903z M1.832,15.524c-0.183,0-0.332,0.149-0.332,0.332
			v13.215c0,0.183,0.149,0.332,0.332,0.332h5.306c0.183,0,0.332-0.149,0.332-0.332V15.856c0-0.183-0.149-0.332-0.332-0.332H1.832z"
			/>
		<path class="st1" d="M1.832,29.152c-0.045,0-0.082-0.037-0.082-0.082V15.856c0-0.045,0.037-0.082,0.082-0.082h5.306
			c0.045,0,0.082,0.037,0.082,0.082v13.214c0,0.045-0.037,0.082-0.082,0.082H1.832z"/>
		<circle class="st0" cx="4.485" cy="27.358" r="0.773"/>
	</g>
	<path class="st0" d="M67.999,0H37.485c-2.11,0-3.826,1.716-3.826,3.826v19.177c0,2.109,1.716,3.825,3.826,3.825h11.382v2.575
		h-2.116c-0.414,0-0.75,0.336-0.75,0.75s0.336,0.75,0.75,0.75h11.785c0.414,0,0.75-0.336,0.75-0.75s-0.336-0.75-0.75-0.75h-1.921
		v-2.575h11.383c2.109,0,3.825-1.716,3.825-3.825V3.826C71.824,1.716,70.108,0,67.999,0z M70.324,23.002
		c0,1.282-1.043,2.325-2.325,2.325H37.485c-1.283,0-2.326-1.043-2.326-2.325V3.826c0-1.282,1.043-2.326,2.326-2.326h30.514
		c1.282,0,2.325,1.043,2.325,2.326V23.002z"/>
</g>
<g>
</g>
<g>
</g>
<g>
</g>
<g>
</g>
<g>
</g>
<g>
</g>
<g>
</g>
<g>
</g>
<g>
</g>
<g>
</g>
<g>
</g>
<g>
</g>
<g>
</g>
<g>
</g>
<g>
</g>
</svg>
