<?xml version="1.0" encoding="utf-8"?>
<!-- Generator: Adobe Illustrator 22.0.1, SVG Export Plug-In . SVG Version: 6.00 Build 0)  -->
<svg version="1.1" id="Layer_1" xmlns="http://www.w3.org/2000/svg" xmlns:xlink="http://www.w3.org/1999/xlink" x="0px" y="0px"
	 width="706.802px" height="127.531px" viewBox="0 0 706.802 127.531" style="enable-background:new 0 0 706.802 127.531;"
	 xml:space="preserve">
<style type="text/css">
	.st0{fill:#F1F1F1;}
</style>
<g>
	<g>
		<rect x="426.698" y="85.257" class="st0" width="8.15" height="35.184"/>
		<ellipse class="st0" cx="430.773" cy="65.011" rx="36.436" ry="35.206"/>
	</g>
	<g>
		<rect x="670.326" y="85.257" class="st0" width="8.15" height="35.184"/>
		<ellipse class="st0" cx="674.78" cy="72.663" rx="32.022" ry="30.942"/>
	</g>
	<g>
		<rect x="21.322" y="89.841" class="st0" width="6.304" height="27.212"/>
		<ellipse class="st0" cx="24.767" cy="80.101" rx="24.767" ry="23.931"/>
	</g>
	<g>
		<ellipse class="st0" cx="615.685" cy="29.397" rx="24.303" ry="23.483"/>
		<ellipse class="st0" cx="615.685" cy="68.443" rx="38.621" ry="37.318"/>
		<rect x="610.335" y="81.342" class="st0" width="10.7" height="46.188"/>
	</g>
	<g>
		<ellipse class="st0" cx="97.174" cy="48.543" rx="17.814" ry="17.213"/>
		<ellipse class="st0" cx="97.174" cy="77.164" rx="28.309" ry="27.354"/>
		<rect x="93.252" y="86.618" class="st0" width="7.843" height="33.855"/>
	</g>
	<g>
		<rect x="537.09" y="74.961" class="st0" width="10.633" height="42.393"/>
		<polygon class="st0" points="541.64,17.217 511.456,96.83 541.64,96.83 571.825,96.83 		"/>
		<polygon class="st0" points="541.64,17.217 541.64,96.83 571.825,96.83 		"/>
	</g>
	<g>
		<rect x="136.594" y="65.523" class="st0" width="10.633" height="55.784"/>
		<polygon class="st0" points="141.145,0 110.96,94.299 141.145,94.299 171.33,94.299 		"/>
		<polygon class="st0" points="141.145,0 141.145,94.299 171.33,94.299 		"/>
	</g>
</g>
<g>
</g>
<g>
</g>
<g>
</g>
<g>
</g>
<g>
</g>
<g>
</g>
<g>
</g>
<g>
</g>
<g>
</g>
<g>
</g>
<g>
</g>
<g>
</g>
<g>
</g>
<g>
</g>
<g>
</g>
</svg>
