<?xml version="1.0" encoding="utf-8"?>
<!-- Generator: Adobe Illustrator 22.0.1, SVG Export Plug-In . SVG Version: 6.00 Build 0)  -->
<svg version="1.1" id="Layer_1" xmlns="http://www.w3.org/2000/svg" xmlns:xlink="http://www.w3.org/1999/xlink" x="0px" y="0px"
	 width="1138.81px" height="431.565px" viewBox="0 0 1138.81 431.565" style="enable-background:new 0 0 1138.81 431.565;"
	 xml:space="preserve">
<style type="text/css">
	.st0{opacity:0.36;fill:#4E4D4D;}
	.st1{fill:#1B1B1B;}
	.st2{fill:#E9540D;}
	.st3{fill:#1B1B1B;stroke:#676767;stroke-width:11.5088;stroke-miterlimit:10;}
	.st4{fill:#1B1B1B;stroke:#9A9999;stroke-width:15.3451;stroke-miterlimit:10;}
	.st5{fill:#A0562F;}
	.st6{fill:#EECEE4;}
	.st7{clip-path:url(#SVGID_2_);fill:#FFFFFF;}
	.st8{fill:#010101;}
	.st9{fill:#FFFFFF;}
	.st10{fill:#6C3B1C;}
	.st11{fill:#D39C81;}
	.st12{fill:#343434;}
	.st13{fill:#F4971D;}
	.st14{fill:#F6A42E;}
	.st15{fill:#F9B550;}
	.st16{fill:#7A4919;}
	.st17{fill:#D7DB2F;}
	.st18{fill:#E7E6E6;}
	.st19{fill:#88999D;}
	.st20{fill:#D0D324;}
	.st21{fill:none;}
	.st22{fill:#EB5B28;}
	.st23{fill:#BE6645;}
	.st24{fill:#754D24;}
	.st25{fill:#FAB651;}
	.st26{fill:#79481A;}
	.st27{fill:#544842;}
	.st28{fill:none;stroke:#FFFFFF;stroke-width:2.7071;stroke-miterlimit:10;}
	.st29{fill:#603914;}
	.st30{fill:#A67D52;}
	.st31{fill:#DABF9F;}
	.st32{fill:#8C633A;}
	.st33{fill:#B4B4B4;}
	.st34{fill:#B51F26;}
	.st35{fill:#412413;}
	.st36{fill:#010101;stroke:#9A9999;stroke-width:4.7527;stroke-miterlimit:10;}
	.st37{fill:#35AE73;}
	.st38{fill:#9A9999;}
	.st39{fill-rule:evenodd;clip-rule:evenodd;fill:#FAB651;}
	.st40{fill-rule:evenodd;clip-rule:evenodd;fill:#29306B;}
	.st41{fill:#29306B;}
	.st42{fill:none;stroke:#563B3F;stroke-width:2.1471;stroke-miterlimit:10;}
	.st43{fill:#F4971B;}
	.st44{fill:#C69C6C;}
	.st45{fill-rule:evenodd;clip-rule:evenodd;fill:#1B1B1B;}
	.st46{fill-rule:evenodd;clip-rule:evenodd;fill:#544842;}
	.st47{fill-rule:evenodd;clip-rule:evenodd;fill:#4E4D4D;}
	.st48{fill-rule:evenodd;clip-rule:evenodd;fill:#F0A3A3;}
	.st49{opacity:0.38;fill:#676767;}
	.st50{fill:#264B9B;}
	.st51{fill:#E3B690;}
	.st52{fill:#2E3166;}
	.st53{fill:#014637;}
	.st54{fill:#7F5714;}
	.st55{fill:#E8E9EA;}
	.st56{fill:#025B8D;}
	.st57{fill:#1E1E1C;}
	.st58{fill:#9C9B9B;}
	.st59{fill:#0D71B9;}
	.st60{fill:#FFCF21;}
	.st61{fill:#CDCCCC;}
	.st62{fill:#72C3EE;}
	.st63{fill:#E6BC7F;}
	.st64{fill:#EA5C31;}
	.st65{fill:#BA9360;}
	.st66{fill:#FDD023;}
	.st67{fill:#D24334;}
	.st68{fill:#DC3924;}
	.st69{fill:#235CA8;}
	.st70{fill:#F9EEE1;}
	.st71{fill:none;stroke:#0A0F19;stroke-width:2.3226;stroke-miterlimit:10;}
	.st72{fill:#191B33;}
	.st73{fill:#A6C7BC;}
	.st74{fill:#0A0F19;}
	.st75{fill:#009245;}
	.st76{fill-rule:evenodd;clip-rule:evenodd;fill:#223162;}
	.st77{fill-rule:evenodd;clip-rule:evenodd;fill:#235CA8;}
	.st78{fill:#4E4D4D;}
	.st79{fill:#7E272E;}
	.st80{fill:#C7B29A;}
</style>
<g>
	<path class="st0" d="M1138.81,416.045c0,7.948-84.189,14.391-244.033,14.391s-289.424-6.443-289.424-14.391
		c0-7.948,129.579-14.391,289.424-14.391S1138.81,408.097,1138.81,416.045z"/>
	<path class="st1" d="M215.242,106.513l44.994,85.287c0.961,1.822,0.263,4.078-1.559,5.04l-1.258,0.664
		c-1.822,0.961-4.078,0.263-5.04-1.559l-44.994-85.287c-0.961-1.822-0.263-4.078,1.559-5.04l1.258-0.664
		C212.024,103.993,214.28,104.691,215.242,106.513z"/>
	<path class="st1" d="M35.362,229.384L35.362,229.384c-1.147-1.332-0.998-3.341,0.333-4.489l19.692-16.969
		c1.332-1.148,3.342-0.998,4.489,0.334l0,0c1.147,1.332,0.998,3.341-0.334,4.489l-19.692,16.969
		C38.52,230.865,36.51,230.716,35.362,229.384z"/>
	<path class="st1" d="M34.419,226.641L34.419,226.641c0.855-1.536,2.794-2.087,4.329-1.232l22.712,12.647
		c1.536,0.855,2.088,2.794,1.232,4.329h0c-0.855,1.536-2.794,2.087-4.329,1.232l-22.712-12.647
		C34.116,230.115,33.564,228.177,34.419,226.641z"/>
	<path class="st1" d="M479.688,300.509H350.454c-26.067,0-47.273-21.207-47.273-47.274l0.081-1.564l21.026-205.255
		C324.746,20.742,345.773,0,371.553,0h87.036c25.781,0,46.809,20.742,47.268,46.416l21.107,206.035v0.784
		C526.964,279.302,505.756,300.509,479.688,300.509z M333.884,253.893c0.347,8.84,7.646,15.926,16.57,15.926h129.235
		c8.924,0,16.225-7.085,16.572-15.926L475.174,48.058v-0.784c0-9.145-7.44-16.584-16.585-16.584h-87.036
		c-9.145,0-16.583,7.439-16.583,16.584l-0.081,1.564L333.884,253.893z"/>
	<path class="st2" d="M311.11,278.166L311.11,278.166c-9.53,3.207,2.119-6.43-1.088-15.957L214.72,103.527
		c-3.208-9.527,17.159-29.156,26.689-32.363l0,0c9.53-3.207,28.314,55.155,31.522,64.682l49.626,119.263
		C325.765,264.635,320.64,274.958,311.11,278.166z"/>
	<path class="st2" d="M40.662,79.628L40.662,79.628c0.654-8.715,8.236-15.242,16.935-14.578l170.107,12.988
		c8.698,0.664,15.22,8.267,14.566,16.982v0c-0.654,8.715-8.236,15.242-16.935,14.578L55.227,96.61
		C46.529,95.946,40.008,88.343,40.662,79.628z"/>
	<path class="st2" d="M58.255,206.887c3.925-1.517,8.039-2.508,12.223-2.888L63.072,48.784c-1.485-8.597-9.674-14.349-18.288-12.849
		c-8.615,1.5-14.394,9.685-12.909,18.281L58.255,206.887z"/>
	<path class="st1" d="M128.34,58.393l-73.039-5.659c-1.29-0.1-2.255-1.227-2.156-2.517v0c0.099-1.291,1.227-2.257,2.518-2.157
		l73.039,5.659c1.29,0.1,2.255,1.227,2.156,2.517v0C130.758,57.527,129.631,58.493,128.34,58.393z"/>
	<path class="st1" d="M211.845,66.971l-96.141-7.449c-2.054-0.159-3.59-1.953-3.431-4.007l0.11-1.419
		c0.159-2.054,1.953-3.59,4.007-3.431l96.141,7.449c2.054,0.159,3.59,1.953,3.431,4.007l-0.11,1.419
		C215.693,65.594,213.899,67.13,211.845,66.971z"/>
	<path class="st1" d="M35.751,145.757l8.509,72.761c0.15,1.285-0.769,2.449-2.055,2.6h0c-1.286,0.151-2.451-0.769-2.601-2.055
		l-8.509-72.761c-0.15-1.285,0.769-2.449,2.055-2.6h0C34.436,143.551,35.6,144.471,35.751,145.757z"/>
	<path class="st1" d="M28.092,62.163l11.199,95.775c0.239,2.046-1.225,3.899-3.272,4.138l-1.413,0.165
		c-2.046,0.239-3.899-1.225-4.138-3.272L19.269,63.195c-0.239-2.046,1.225-3.899,3.272-4.138l1.413-0.165
		C26,58.652,27.853,60.117,28.092,62.163z"/>
	<path class="st1" d="M255.417,186.703l34.183,64.793c0.604,1.144,0.166,2.562-0.978,3.166l0,0
		c-1.145,0.605-2.563,0.166-3.167-0.979l-34.183-64.793c-0.604-1.144-0.166-2.562,0.978-3.166l0,0
		C253.394,185.119,254.813,185.558,255.417,186.703z"/>
	<path class="st2" d="M213.146,93.82L213.146,93.82c-11.473,0-20.773-9.3-20.773-20.773v0c0-11.473,9.3-20.773,20.773-20.773h0
		c11.473,0,20.773,9.3,20.773,20.773v0C233.919,84.52,224.619,93.82,213.146,93.82z"/>
	<path class="st2" d="M304.902,282.272L304.902,282.272c-15.853,0-28.704-12.851-28.704-28.704v0
		c0-15.853,12.851-28.704,28.704-28.704h0c15.853,0,28.704,12.851,28.704,28.704v0C333.606,269.421,320.755,282.272,304.902,282.272
		z"/>
	<path class="st2" d="M41.724,74L41.724,74c-11.473,0-27.885-7.419-27.885-18.892v-5.688c0-11.473,16.412-16.967,27.885-16.967h0
		c11.473,0,20.773,9.3,20.773,20.773v0C62.497,64.699,53.196,74,41.724,74z"/>
	<path class="st2" d="M138.054,212.165c-11.08,0-21.133-3.164-29.666-8.509H54.656c0,0-1.873,48.567,15.743,48.567
		s86.541-38.02,86.541-38.02l-2.659-4.573C149.033,211.27,143.566,212.165,138.054,212.165z"/>
	<path class="st1" d="M481.567,274.934H342.182c-12.66,0-23.018-10.358-23.018-23.018v-4.476c0-12.66,10.358-23.018,23.018-23.018
		h139.385c12.66,0,23.018,10.358,23.018,23.018v4.476C504.585,264.576,494.227,274.934,481.567,274.934z"/>
	<polygon class="st1" points="362.645,336.994 362.645,286.824 467.501,286.825 467.501,286.825 467.501,336.994 467.501,336.995 
		362.645,336.994 	"/>
	<path class="st3" d="M524.986,402.174H302.008c-18.528,0-33.687-15.159-33.687-33.687v-6.103c0-18.528,15.159-33.687,33.687-33.687
		h222.978c18.528,0,33.687,15.159,33.687,33.687v6.103C558.672,387.015,543.513,402.174,524.986,402.174z"/>
	<circle class="st4" cx="314.109" cy="365.436" r="18.862"/>
	<circle class="st4" cx="377.821" cy="365.436" r="18.862"/>
	<circle class="st4" cx="441.534" cy="365.436" r="18.862"/>
	<circle class="st4" cx="505.246" cy="365.436" r="18.862"/>
	<circle class="st1" cx="38.168" cy="52.274" r="7.38"/>
	<circle class="st1" cx="213.146" cy="70.453" r="7.38"/>
	<circle class="st1" cx="303.18" cy="254.616" r="7.38"/>
	<circle class="st1" cx="64.434" cy="212.571" r="3.31"/>
	<rect x="29.097" y="271.077" class="st5" width="14.102" height="125.806"/>
	<rect x="52.345" y="271.077" class="st5" width="14.102" height="125.806"/>
	<rect x="175.907" y="271.077" class="st5" width="14.102" height="125.806"/>
	<ellipse class="st6" cx="184.726" cy="328.565" rx="30.308" ry="24.926"/>
	<ellipse class="st6" cx="174.439" cy="354.233" rx="3.156" ry="8.822"/>
	<ellipse class="st6" cx="184.726" cy="355.499" rx="3.156" ry="8.822"/>
	<ellipse class="st6" cx="191.124" cy="350.1" rx="3.156" ry="8.822"/>
	<ellipse class="st6" cx="201.41" cy="351.366" rx="3.156" ry="8.822"/>
	<rect x="228.286" y="271.077" class="st5" width="14.102" height="125.806"/>
	<g>
		<defs>
			<path id="SVGID_1_" d="M217.359,329.251H55.076c-22.277,0-50.68-28.403-50.68-50.68l10.343-43.149
				c0-28.287,22.931-51.219,51.219-51.219h151.401c28.287,0,51.219,22.931,51.219,51.219v42.61
				C268.578,306.319,245.647,329.251,217.359,329.251z"/>
		</defs>
		<use xlink:href="#SVGID_1_"  style="overflow:visible;fill:#A0562F;"/>
		<clipPath id="SVGID_2_">
			<use xlink:href="#SVGID_1_"  style="overflow:visible;"/>
		</clipPath>
		<path class="st7" d="M156.824,200.162c0,0-21.932-8.474-43.864,3.489s-34.892,28.412-24.923,44.362s42.369-16.449,57.322-5.981
			c14.954,10.468,20.437,20.437,34.393,13.458c13.957-6.978,33.895-24.424,36.387-35.889c2.492-11.464-0.498-43.366-0.498-43.366
			l-45.707-1.9L156.824,200.162z"/>
	</g>
	<path class="st8" d="M256.112,211.206c-3.454-9.011-10.781-15.723-19.508-19.516c-8.555-3.719-20.03,1.137-23.106,10.013
		c-0.907,2.618-1.219,5.262-1.028,7.806c-0.781,3.59-0.503,7.547,0.717,11.583c2.497,8.254,6.484,15.521,11.226,22.702
		c5.835,8.837,22.888,8.838,28.185-0.686C258.24,232.963,260.392,222.37,256.112,211.206z"/>
	<path class="st5" d="M4.396,280.114l-4.282-31.6c-1.49-24.249,11.737-47.018,33.54-57.735l65.776-32.332
		c1.077-0.53,2.177-0.995,3.296-1.399c2.958-7.215,10.999-12.109,18.997-11.381c8.767,0.799,15.847,7.821,17.188,16.195
		c0.065,0.406,0.1,0.799,0.117,1.183l42.67,18.642c-0.795,11.969-10.011,21.696-22.147,23.375l-50.037,6.924l-50.116,70.2
		L4.396,280.114z"/>
	
		<ellipse transform="matrix(0.2164 -0.9763 0.9763 0.2164 -70.6856 264.5833)" class="st9" cx="129.483" cy="176.326" rx="3.913" ry="4.011"/>
	<path class="st10" d="M186.091,191.165c0,8.923-8.26,16.157-18.45,16.157c-10.19,0-11.993-7.234-11.993-16.157
		c0-8.923,1.803-15.026,11.993-15.026C177.831,176.139,186.091,182.242,186.091,191.165z"/>
	<path class="st11" d="M186.091,189.362c0,8.923-7.234,16.157-16.157,16.157s-10.502-7.234-10.502-16.157
		c0-8.923,1.579-15.026,10.502-15.026S186.091,180.439,186.091,189.362z"/>
	
		<ellipse transform="matrix(0.2164 -0.9763 0.9763 0.2164 -44.0165 318.6559)" class="st8" cx="176.503" cy="186.749" rx="3.913" ry="4.011"/>
	<path class="st8" d="M36.133,404.007L36.133,404.007c-3.886,0-7.036-3.15-7.036-7.036v-17.629H43.17v17.629
		C43.17,400.856,40.019,404.007,36.133,404.007z"/>
	<path class="st8" d="M59.396,404.007L59.396,404.007c-3.886,0-7.036-3.15-7.036-7.036v-17.629h14.072v17.629
		C66.433,400.856,63.282,404.007,59.396,404.007z"/>
	<path class="st8" d="M182.958,404.007L182.958,404.007c-3.886,0-7.036-3.15-7.036-7.036v-17.629h14.072v17.629
		C189.994,400.856,186.844,404.007,182.958,404.007z"/>
	<path class="st8" d="M235.337,404.007L235.337,404.007c-3.886,0-7.036-3.15-7.036-7.036v-17.629h14.072v17.629
		C242.373,400.856,239.223,404.007,235.337,404.007z"/>
	<path class="st12" d="M704.865,417.373V238.869c0-9.151-7.487-16.641-16.638-16.641c-9.151,0-16.641,7.49-16.641,16.641v178.505
		H704.865z"/>
	<path class="st12" d="M741.306,417.373V238.869c0-9.151-7.49-16.641-16.641-16.641c-9.151,0-16.641,7.49-16.641,16.641v178.505
		H741.306z"/>
	<polygon class="st13" points="704.776,157.804 688.582,138.37 688.582,118.939 720.969,118.939 720.969,138.37 	"/>
	<path class="st14" d="M682.104,95.809c0,8.637-12.955,8.637-12.955,0S682.104,87.172,682.104,95.809"/>
	<path class="st14" d="M740.536,95.809c0,8.637-12.955,8.637-12.955,0S740.536,87.172,740.536,95.809"/>
	<path class="st15" d="M733.925,77.558c0.133-32.017-58.297-33.156-58.297,0v21.093c0,15.745,12.332,28.97,28.071,29.527
		c16.693,0.59,30.226-12.58,30.226-29.13V77.558z"/>
	<path class="st16" d="M720.97,95.809c0,4.318-6.479,4.318-6.479,0C714.491,91.49,720.97,91.49,720.97,95.809"/>
	<path class="st16" d="M695.059,95.809c0,4.318-6.479,4.318-6.479,0C688.58,91.49,695.059,91.49,695.059,95.809"/>
	<path class="st17" d="M751.519,152.617c-10.858-22.526-30.549-17.943-30.549-17.943l-16.105,17.663l-16.285-17.663
		c0,0-23.628,0.889-32.322,29.501c0.375,19.936,0.96,39.869,1.263,59.805c2.367,10.69-2.111,58.968,2.561,72.369h91.969
		c1.622-7.276,0.478-50.423,1.626-56.886c-1.551-26.109-0.453-52.275-0.297-78.423C753.398,158.132,752.782,155.237,751.519,152.617
		z"/>
	<polygon class="st18" points="688.582,138.37 704.937,142.479 723.954,138.37 712.946,183.151 697.368,183.982 	"/>
	<polygon class="st8" points="698.529,144.931 704.394,159.891 711.098,144.931 	"/>
	<polygon class="st8" points="702.595,149.47 697.05,176.165 705.183,191.361 712.823,175.221 706.169,149.47 	"/>
	<polygon class="st9" points="704.776,140.728 685.755,135.052 693.975,160.396 703.975,143.696 713.783,160.422 726.38,134.316 
		720.97,134.674 	"/>
	<rect x="741.305" y="169.387" class="st19" width="1.504" height="18.608"/>
	
		<rect x="658.121" y="204.468" transform="matrix(9.366203e-11 -1 1 9.366203e-11 472.7267 889.2118)" class="st9" width="45.697" height="7.55"/>
	
		<rect x="707.401" y="204.468" transform="matrix(9.362295e-11 -1 1 9.362295e-11 522.0067 938.4918)" class="st9" width="45.697" height="7.55"/>
	<path class="st20" d="M753.678,157.804c-1.912-12.094-24.272-28.836-22.371-16.804c0.48,3.036,1.623,22.61,1.616,25.571
		c10.391,2.887,9.935,20.111-1.649,18.746c-0.351-0.041-0.691-0.048-1.024-0.039c-0.69,2.62-0.38,1.403-0.265,0.013
		c-5.487,0.354-8.654,7.198-12.447,10.764c-0.296,0.278-0.617,0.522-0.921,0.789c4.934,5.045,18.06,14.347,26.193,12.887
		C762.861,206.132,755.963,172.262,753.678,157.804z"/>
	<path class="st21" d="M729.984,185.291c-0.115,1.391-0.425,2.608,0.265-0.013C730.16,185.28,730.072,185.285,729.984,185.291z"/>
	<path class="st20" d="M688.5,190.43c-9.578,7.463-23.168-5.953-13.492-13.492c1.53-1.193,3.116-2.278,4.744-3.256
		c-0.361-1.502-0.432-2.997-0.075-4.397c-0.272-0.649-0.329-1.423-0.038-2.305c1.912-5.783,1.739-22.972,0.113-28.61
		c-3.668-1.433-8.794,2.471-12.523,4.602c-18.608,10.636-19.794,57.742,1.846,66.383c9.599,3.833,26.83-1.918,36.377-5.625
		c4.124-1.601,7.858-3.965,11.164-6.887c-1.356-1.386-2.693-2.834-4.063-4.251C706.156,185.975,696.005,184.582,688.5,190.43z"/>
	<rect x="724.667" y="143.048" class="st8" width="16.512" height="28.78"/>
	<rect x="729.17" y="135.431" class="st8" width="3.753" height="12.128"/>
	<path class="st15" d="M726.045,179.1c0.829,0.871,3.438,3.332,3.877,4.595c0.125,0.359,0.112,0.991,0.062,1.596
		c0.088-0.005,0.176-0.01,0.265-0.013c0.019-0.072,0.033-0.126,0.053-0.203c1.627-6.186,2.605-12.288,2.621-18.503
		c-0.525-0.146-1.069-0.266-1.649-0.335c-5.989-0.706-11.59,1.337-16.289,4.885c0.95,0.448,1.894,0.936,2.829,1.479
		C720.802,174.336,723.659,176.591,726.045,179.1z"/>
	<path class="st20" d="M698.163,186.172c6.572-2.312,9.705-8.744,14.584-13.204c0.718-0.656,1.468-1.266,2.237-1.846
		c-11.709-5.52-24.434-3.925-35.232,2.561C681.531,181.095,690.999,188.692,698.163,186.172z"/>
	<path class="st15" d="M730.302,185.075c-0.02,0.077-0.034,0.132-0.053,0.203c0.333-0.009,0.673-0.002,1.024,0.039
		c11.585,1.365,12.04-15.858,1.649-18.746C732.907,172.787,731.929,178.888,730.302,185.075z"/>
	<path class="st15" d="M699.825,186.665c-5.636-1.57-18.769-7.545-20.073-12.982c-1.628,0.978-3.214,2.063-4.744,3.256
		c-9.676,7.539,3.914,20.955,13.492,13.492c1.149-0.896,2.365-1.601,3.614-2.164C691.947,187.594,699.644,187.333,699.825,186.665z"
		/>
	<path class="st20" d="M729.922,183.695c-0.44-1.264-3.049-3.724-3.877-4.595c-2.386-2.509-5.243-4.764-8.232-6.499
		c-0.935-0.543-1.879-1.031-2.829-1.479c-0.769,0.58-1.52,1.19-2.237,1.846c-4.746,4.339-7.85,10.532-14.065,12.995
		c0.088,0.257,0.14,0.526,0.174,0.797c4.996-0.078,9.98,1.987,13.697,5.832c1.37,1.417,2.707,2.865,4.063,4.251
		c0.304-0.268,0.625-0.511,0.921-0.789c3.794-3.565,6.96-10.409,12.447-10.764C730.034,184.687,730.047,184.054,729.922,183.695z"/>
	<path class="st8" d="M725.978,401.399c-10.021,0-18.145,6.797-18.145,18.145h36.29
		C744.123,408.196,735.999,401.399,725.978,401.399z"/>
	<path class="st8" d="M687.346,401.399c-10.021,0-18.145,6.797-18.145,18.145h36.29
		C705.491,408.196,697.367,401.399,687.346,401.399z"/>
	<rect x="658.191" y="229.279" class="st9" width="95.341" height="7.55"/>
	<path class="st8" d="M682.432,110.176c-2.818-0.839-6.428-1.803-7.416-4.977c-0.888-2.852,0.194-6.182-0.177-9.132
		c-0.311-2.48-4.251-2.511-3.936,0c0.519,4.134-1.052,8.604,1.3,12.388c1.998,3.214,5.753,4.496,9.182,5.517
		C683.818,114.696,684.857,110.898,682.432,110.176z"/>
	<path class="st15" d="M991.487,281.806c-0.654-4.842,2.662-10.125,7.853-10.717c4.994-0.57,10.176,2.545,10.877,7.737
		c0.544,4.022,1.088,8.045,1.631,12.067c0.655,4.842-2.661,10.124-7.853,10.717c-4.994,0.57-10.175-2.546-10.877-7.737
		C992.575,289.85,992.031,285.828,991.487,281.806z"/>
	<ellipse class="st22" cx="988.78" cy="174.974" rx="13.448" ry="14.614"/>
	<path class="st23" d="M994.328,281.111c3.132,5.035,17.284,5.598,18.686,5.429c3.546-16.124-8.662-65.998-20.475-77.362
		c-4.274-4.115-9.759-7.258-9.759-7.258s9.046,24.892,8.194,46.345L994.328,281.111z"/>
	<path class="st24" d="M951.483,234.073c-9.101-2.37-17.816,0-17.816,0s-0.018,10.657,0,14.043c1.532,2.554,6.513,5.655,8.619,6.02
		c2.107,0.363,7.279-3.284,9.197-5.473V234.073z"/>
	<path class="st25" d="M945.479,200.586l23.601,18.267l11.525-18.267c-6.452-1.783-13.007-1.894-17.561-1.894
		C958.491,198.692,951.933,198.803,945.479,200.586z"/>
	
		<ellipse transform="matrix(0.9997 -0.0261 0.0261 0.9997 -4.3276 24.5275)" class="st25" cx="936.308" cy="177.846" rx="6.25" ry="5.117"/>
	<path class="st25" d="M991.599,159.852c-1.126-19.414-56.92-10.104-56.18,2.668c0.163,2.81,0.874,15.071,1.037,17.881
		c0.741,12.772,13.157,24.464,28.763,23.723c15.605-0.741,28.157-13.619,27.417-26.391
		C992.473,174.923,991.762,162.662,991.599,159.852z"/>
	<path class="st25" d="M915.44,280.836c4.746-0.335,7.754,2.597,8.823,6.871c-0.273-1.09-0.051-0.288,0.162,0.327
		c0.186,0.539,0.389,1.071,0.615,1.596c0.178,0.42,0.379,0.83,0.575,1.242c0.034,0.073,0.042,0.093,0.071,0.152
		c0.067,0.094,0.166,0.243,0.31,0.471c2.203,3.472,2.043,8.475-1.707,10.949c-3.361,2.217-8.76,2.028-11.113-1.683
		c-2.3-3.625-3.677-7.097-4.709-11.232C907.469,285.538,911.524,281.113,915.44,280.836z"/>
	
		<ellipse transform="matrix(0.9997 -0.0261 0.0261 0.9997 -4.1617 25.8957)" class="st26" cx="988.74" cy="172.184" rx="3.125" ry="2.558"/>
	
		<ellipse transform="matrix(0.9997 -0.0261 0.0261 0.9997 -4.1722 25.0935)" class="st26" cx="958.039" cy="172.184" rx="3.125" ry="2.558"/>
	<path class="st27" d="M994.319,141.518c0.002-0.335,0.004-0.669,0.003-0.997C994.318,138.612,994.341,141.628,994.319,141.518z"/>
	<path class="st1" d="M931.376,155.081c-0.411-0.214-0.786-0.469-1.135-0.744c0.319-5.153,1.666-10.184,2.343-15.308
		c0.039-0.299,0.064-0.603,0.08-0.91c0.997-0.478,2.013-0.927,3.047-1.351c0.367-4.198,3.398-0.501,7.723-2.465
		c12.464-5.66,26.655-5.59,39.454-0.963c4.306,1.557,6.481,4.443,7.052,7.61c0.264-0.13,0.528-0.261,0.792-0.411
		c1.072-0.611-1.05,0.777,0,0c0.156,1.135,3.558,0.062,3.565,0.351c0.01,0.426,0.017,0.602,0.022,0.627
		c-0.017,3.009-0.089,6.283,0.71,9.21c0.161,4.865,0.321,9.731,0.482,14.595c0.066,2.017-0.948,3.508-2.442,4.487
		c0.45-2.748-0.479-5.793-2.784-7.307c-0.132-1.597-0.306-3.181-0.545-4.646c-0.748,1.146-2.016,2.074-3.918,2.553
		c-11.607,2.924-22.773,2.65-34.173-0.95c-0.976-0.308-1.754-0.739-2.392-1.242c-0.77,3.091-1.298,6.265-1.339,9.42
		c-0.048,3.738-2.181,7.22-6.544,7.691c-1.095,0.118-2.294-0.053-3.432-0.45c0.005,0.108,0.01,0.224,0.015,0.327
		c-2.641-0.249-5.218-1.531-6.214-3.666C929.18,166.052,929.048,160.379,931.376,155.081z"/>
	<path class="st23" d="M921.432,240.479c1.789-4.039,4.396-7.665,8.071-10.618c9.369-7.528,22.239-11.632,34.118-12.908
		c0,0-22.968-12.481-27.576-11.155c-17.355,4.996-36.891,25.95-40.569,42.045c-0.378,1.391-0.555,3.478-0.456,6.635
		c0.424,13.515,13.847,34.783,13.847,34.783c1.561-1.241,12.156-6.091,12.156-6.091C918.31,270.321,915.745,253.315,921.432,240.479
		z"/>
	<ellipse class="st22" cx="937.691" cy="174.284" rx="13.448" ry="14.614"/>
	<path class="st22" d="M997.642,158.975c-5.617-3.061-11.891-4.769-18.254-4.58c-14.679,0.436-29.356,0.851-44.043,0.88
		c-2.414,0.005-4.755,0.237-7.02,0.652c-0.811-0.6-1.265-1.228-1.265-1.876c0-1.19,1.457-2.317,4.047-3.319
		c-0.349-1.725-0.558-3.493-0.558-5.309c0-16.327,14.74-29.563,32.923-29.563c18.183,0,32.923,13.236,32.923,29.563
		c0,1.149-0.091,2.277-0.232,3.392c6.892,1.361,11.134,3.204,11.134,5.236C1007.297,155.932,1003.652,157.65,997.642,158.975z"/>
	<path class="st8" d="M942.306,126.43c4.974-9.393,14.674-16.949,25.493-11.455c0.567,0.288,0.936,0.679,1.146,1.114
		c-0.775-0.089-1.557-0.146-2.351-0.146c-8.857,0-16.627,5.68-19.742,13.462c-1.838,3.519-3.192,7.206-4.074,9.97
		c-2.899,9.091-3.71,18.495-2.945,27.962c0.277,3.426-5.145,3.408-5.42,0C933.283,153.345,935.675,138.954,942.306,126.43z"/>
	<path class="st22" d="M924.046,268.666c0.594-11.773,2.069-23.546,4.331-35.121c1.272-6.513,2.82-12.974,4.647-19.359
		c1.47-5.136,2.631-11.623,7.14-15.078c4.005-3.07,9.911-3.029,14.111-0.311c2.137,1.383,3.606,3.19,4.622,5.231
		c1.443-0.051,2.928-0.008,4.5,0.149c2.637,0.263,9.319,2.18,10.818-0.525c2.898-5.23,11.873-5.663,14.646,0l2.045,4.177
		c4.642,5.054,6.831,11.232,7.825,18.483c1.597,11.647,2.136,23.526,2.743,35.257c0.558,10.803,1.776,22.291,1.071,33.204
		c-1.742,2.899-2.789,6.218-2.914,9.73c-10.697,2.647-21.323,5.643-32.242,7.064c-12.523,1.629-24.942-0.675-38.339-3.609
		c-0.014-0.208-0.028-0.411-0.042-0.621c-1.447-1.587-2.627-3.508-3.446-5.859C922.135,291.648,923.531,278.869,924.046,268.666z"/>
	<path class="st9" d="M943.907,220.117c1.407,0.946,2.979,1.434,4.656,1.447c-0.511-1.266-0.953-2.559-1.314-3.878
		c-0.31-1.133,1.473-1.617,1.783-0.484c0.468,1.71,1.065,3.371,1.794,4.983c0.052-0.066,0.106-0.13,0.162-0.193
		c0.006-0.044,0.014-0.09,0.027-0.136c0.547-1.977,0.91-3.985,1.07-6.028c0.091-1.161,1.94-1.171,1.849,0
		c-0.121,1.55-0.345,3.087-0.67,4.605c0.823-0.362,1.692-0.667,2.4-1.215c0.926-0.716,2.243,0.565,1.307,1.288
		c-0.742,0.574-1.548,0.948-2.39,1.326c0.709,0.747,1.827,1.038,2.828,0.803c1.157-0.272,1.65,1.484,0.492,1.757
		c-1.905,0.448-3.751-0.23-4.969-1.696c-0.381,0.274-0.708,0.609-0.934,1.053c-0.494,0.969-0.511,2.097-0.499,3.158
		c0.015,1.279,0.058,2.533-0.225,3.792c-0.258,1.144-2.041,0.66-1.783-0.484c0.431-1.913-0.008-3.912,0.363-5.806
		c-0.178-0.351-0.348-0.705-0.514-1.061c-0.054,0.012-0.109,0.021-0.169,0.025c-2.197,0.131-4.377-0.459-6.196-1.681
		C941.996,221.033,942.92,219.454,943.907,220.117z"/>
	<path class="st9" d="M945.894,232.193c2.522,0.401,5.068,0.597,7.623,0.611c1.189,0.007,1.192,1.828,0,1.822
		c-2.722-0.015-5.428-0.249-8.114-0.676C944.231,233.763,944.728,232.007,945.894,232.193z"/>
	<path class="st28" d="M997.897,165.633l-0.001,0.037c-0.135,7.554-3.857,14.347-9.394,16.552
		c-5.768,2.297-11.213-0.275-14.554-5.296c-1-1.502-2.822-1.403-3.753,0.174c-3.444,5.835-9.418,8.985-15.786,6.65
		c-5.986-2.195-10.092-9.401-10.349-17.511v0c-0.058-1.831,1.063-3.357,2.467-3.357h49.31
		C996.998,162.882,997.924,164.12,997.897,165.633z"/>
	<path class="st8" d="M965.226,305.306c1.201-31.754,1.535-63.803,0.997-95.758c-0.089-5.311,2.388-5.295,2.477,0
		c0.538,31.955,0.204,64.004-0.997,95.758c-0.084,2.231-0.509,4.105-1.239,4.13C965.86,309.457,965.142,307.519,965.226,305.306z"/>
	<path class="st29" d="M991.146,414.747c0.035-2.739,0.185-5.482,0.277-8.219c0.149-4.399-0.532-10.229,3.763-13.02
		c1.253-0.814,2.669-1.206,4.153-1.359c0.393-0.136,0.832-0.214,1.322-0.216c10.787-0.038,21.573-0.075,32.36-0.113
		c8.186-0.029,19.905-1.462,24.073,7.478c1.701,3.649,2.068,8.317,1.766,12.294c-0.358,4.711-2.853,8.372-7.358,10.093
		c-3.893,1.487-8.326,1.215-12.421,1.243c-5.336,0.037-10.672,0.074-16.009,0.111c-5.481,0.038-10.961,0.076-16.441,0.113
		c-4.37,0.03-10.64,1.215-13.831-2.503C991.375,418.986,991.119,416.849,991.146,414.747z M1048.786,414.682
		c-1.749,0.447-3.671,0.565-5.578,0.565c-0.234,0.06-0.473,0.116-0.713,0.167c0.848-0.031,1.695-0.064,2.54-0.11
		C1046.197,415.243,1047.606,415.134,1048.786,414.682z M1006.633,415.613l4.301-0.03c-3.344-0.046-6.687-0.092-10.031-0.138
		c-0.85-0.012-1.55-0.246-2.107-0.621c-0.004,0.251-0.006,0.501-0.004,0.75c0.447,0.019,0.924,0.084,1.35,0.083
		C1002.306,415.651,1004.47,415.628,1006.633,415.613z"/>
	<path class="st23" d="M984.469,396.025c3.743-4.221,10.038-6.225,15.351-3.801c1.293,0.59,2.435,1.417,3.406,2.402
		c7.46,4.783,9.944,15.465,3.289,22.361c-7.806,8.087-21.535,4.998-25.204-5.48C979.482,406.288,980.8,400.163,984.469,396.025z"/>
	<path class="st30" d="M985.69,398.505c2.847-3.21,7.634-4.734,11.674-2.891c0.983,0.448,1.852,1.077,2.59,1.826
		c5.673,3.637,7.562,11.761,2.501,17.005c-5.936,6.15-16.377,3.801-19.168-4.167C981.898,406.309,982.9,401.651,985.69,398.505z"/>
	<path class="st31" d="M989.688,402.739c1.483-1.672,3.975-2.465,6.079-1.505c0.512,0.234,0.964,0.561,1.349,0.951
		c2.954,1.894,3.938,6.125,1.302,8.856c-3.091,3.203-8.529,1.979-9.982-2.17C987.713,406.803,988.234,404.377,989.688,402.739z"/>
	<path class="st29" d="M1004.598,392.382c0.035-2.739,0.185-5.482,0.277-8.219c0.149-4.399-0.532-10.229,3.763-13.02
		c1.253-0.814,2.669-1.206,4.153-1.359c0.393-0.136,0.832-0.214,1.322-0.216c10.787-0.038,21.573-0.075,32.36-0.113
		c8.186-0.029,19.905-1.461,24.073,7.478c1.701,3.649,2.068,8.317,1.766,12.294c-0.358,4.711-2.853,8.372-7.358,10.093
		c-3.893,1.487-8.326,1.215-12.421,1.243c-5.336,0.037-10.672,0.074-16.009,0.111c-5.481,0.038-10.961,0.076-16.441,0.113
		c-4.37,0.03-10.64,1.215-13.831-2.503C1004.827,396.62,1004.571,394.484,1004.598,392.382z M1062.238,392.317
		c-1.749,0.447-3.671,0.565-5.578,0.565c-0.234,0.06-0.473,0.116-0.713,0.167c0.848-0.031,1.695-0.064,2.54-0.11
		C1059.648,392.877,1061.058,392.768,1062.238,392.317z M1020.085,393.247l4.301-0.03c-3.344-0.046-6.687-0.092-10.031-0.138
		c-0.85-0.012-1.55-0.246-2.107-0.621c-0.004,0.251-0.006,0.501-0.004,0.75c0.447,0.019,0.924,0.084,1.35,0.083
		C1015.758,393.285,1017.922,393.262,1020.085,393.247z"/>
	<path class="st23" d="M997.921,373.66c3.743-4.221,10.038-6.225,15.351-3.801c1.293,0.59,2.435,1.417,3.406,2.402
		c7.46,4.783,9.944,15.465,3.289,22.361c-7.806,8.087-21.535,4.998-25.205-5.48C992.934,383.922,994.252,377.797,997.921,373.66z"/>
	<path class="st30" d="M999.142,376.139c2.847-3.21,7.634-4.734,11.674-2.891c0.983,0.448,1.852,1.077,2.59,1.826
		c5.673,3.637,7.562,11.761,2.501,17.005c-5.936,6.15-16.377,3.801-19.168-4.167C995.35,383.943,996.352,379.286,999.142,376.139z"
		/>
	<path class="st31" d="M1003.14,380.373c1.483-1.672,3.975-2.465,6.079-1.505c0.512,0.234,0.964,0.561,1.349,0.951
		c2.954,1.894,3.938,6.125,1.302,8.856c-3.091,3.203-8.529,1.979-9.982-2.17C1001.165,384.437,1001.686,382.012,1003.14,380.373z"/>
	<path class="st29" d="M1023.095,414.747c0.035-2.739,0.185-5.482,0.277-8.219c0.148-4.399-0.532-10.229,3.763-13.02
		c1.253-0.814,2.669-1.206,4.153-1.359c0.393-0.136,0.832-0.214,1.322-0.216c10.787-0.038,21.315-2.431,32.102-2.469
		c8.186-0.029,20.163,0.895,24.331,9.834c1.701,3.649,2.068,8.317,1.766,12.294c-0.358,4.711-2.853,8.372-7.358,10.093
		c-3.893,1.487-8.326,1.215-12.421,1.243c-5.336,0.037-10.672,0.074-16.009,0.111c-5.481,0.038-10.961,0.076-16.441,0.113
		c-4.37,0.03-10.64,1.215-13.831-2.503C1023.323,418.986,1023.067,416.849,1023.095,414.747z M1080.734,414.682
		c-1.749,0.447-3.671,0.565-5.578,0.565c-0.234,0.06-0.473,0.116-0.713,0.167c0.848-0.031,1.695-0.064,2.541-0.11
		C1078.145,415.243,1079.555,415.134,1080.734,414.682z M1038.581,415.613l4.301-0.03c-3.344-0.046-6.687-0.092-10.031-0.138
		c-0.85-0.012-1.55-0.246-2.107-0.621c-0.005,0.251-0.006,0.501-0.004,0.75c0.447,0.019,0.924,0.084,1.35,0.083
		C1034.255,415.651,1036.418,415.628,1038.581,415.613z"/>
	<path class="st23" d="M1016.417,396.025c3.743-4.221,10.038-6.225,15.351-3.801c1.293,0.59,2.435,1.417,3.406,2.402
		c7.46,4.783,9.944,15.465,3.289,22.361c-7.806,8.087-21.535,4.998-25.205-5.48C1011.431,406.288,1012.748,400.163,1016.417,396.025
		z"/>
	<path class="st30" d="M1017.639,398.505c2.847-3.21,7.634-4.734,11.674-2.891c0.983,0.448,1.852,1.077,2.59,1.826
		c5.673,3.637,7.562,11.761,2.501,17.005c-5.936,6.15-16.377,3.801-19.168-4.167
		C1013.846,406.309,1014.848,401.651,1017.639,398.505z"/>
	<path class="st31" d="M1021.636,402.739c1.483-1.672,3.975-2.465,6.079-1.505c0.512,0.234,0.964,0.561,1.349,0.951
		c2.954,1.894,3.938,6.125,1.302,8.856c-3.091,3.203-8.529,1.979-9.982-2.17C1019.661,406.803,1020.183,404.377,1021.636,402.739z"
		/>
	<path class="st30" d="M967.485,328.018c0.416,11.616,1.586,23.158,3.513,34.608c-0.317,19.346-0.74,38.365-1.296,55.478
		l25.707,1.476c0.619-19.038,0.064-72.464,1.199-106.547v-9.236c-19.489,3.342-40.43,3.194-62.639,0v9.236
		c1.135,34.083,0.58,87.509,1.199,106.547l25.707-1.476c-0.556-17.113-0.979-36.132-1.296-55.478
		c1.928-11.451,3.097-22.992,3.513-34.608C963.603,325.235,966.246,324.417,967.485,328.018z"/>
	<path class="st32" d="M932.79,351.864c2.896-7.633,13.507-6.49,20.15-5.647c3.398,0.432,6.413,2.286,7.324,5.452
		c0.845,1.193,1.332,2.617,1.252,4.129c-0.336,6.382,1.128,16.368-5.52,19.947c-3.144,1.692-7.626,1.487-11.137,1.822
		c-4.146,0.395-8.369-0.69-10.515-4.564c-1.701-3.071-1.697-6.785-1.941-10.198C932.151,359.288,931.516,355.22,932.79,351.864z"/>
	<path class="st32" d="M997.787,351.864c-2.896-7.633-13.507-6.49-20.15-5.647c-3.398,0.432-6.413,2.286-7.324,5.452
		c-0.845,1.193-1.332,2.617-1.252,4.129c0.337,6.382-1.128,16.368,5.52,19.947c3.144,1.692,7.626,1.487,11.137,1.822
		c4.146,0.395,8.369-0.69,10.515-4.564c1.701-3.071,1.697-6.785,1.941-10.198C998.426,359.288,999.061,355.22,997.787,351.864z"/>
	<path class="st1" d="M910.858,327.664L910.858,327.664c2.428,0.358,4.713-1.307,5.076-3.7l3.312-21.812
		c0.363-2.393-1.326-4.643-3.755-5.001l0,0c-2.429-0.358-4.713,1.307-5.076,3.7l-3.312,21.812
		C906.74,325.055,908.429,327.306,910.858,327.664z"/>
	<path class="st33" d="M904.289,400.656L904.289,400.656c5.464,0.805,10.604-2.94,11.421-8.324l7.808-51.424
		c0.817-5.384-2.984-10.447-8.449-11.253l0,0c-5.464-0.805-10.604,2.94-11.421,8.324l-7.808,51.424
		C895.023,394.786,898.825,399.85,904.289,400.656z"/>
	<path class="st9" d="M905.489,394.39L905.489,394.39c3.094,0.456,6.004-1.665,6.466-4.713l6.753-44.473
		c0.463-3.048-1.69-5.915-4.784-6.371l0,0c-3.094-0.456-6.004,1.665-6.466,4.713l-6.753,44.473
		C900.243,391.067,902.396,393.934,905.489,394.39z"/>
	<path class="st34" d="M907.976,347.057l8.709,1.284c6.56,0.967,12.731-3.53,13.712-9.994l3.056-20.126
		c0.981-6.464-3.583-12.543-10.143-13.51l-8.709-1.284c-6.56-0.967-12.731,3.53-13.712,9.994l-3.056,20.126
		C896.851,340.011,901.415,346.09,907.976,347.057z"/>
	<path class="st1" d="M922.894,328.416l12.935,1.907c1.983,0.292,3.848-1.067,4.145-3.021l0,0c0.297-1.954-1.083-3.791-3.066-4.084
		l-12.935-1.907c-1.983-0.292-3.848,1.067-4.145,3.021l0,0C919.531,326.286,920.911,328.124,922.894,328.416z"/>
	<path class="st1" d="M921.309,314.576L921.309,314.576c2.429,0.358,4.713-1.307,5.076-3.7l3.312-21.812
		c0.363-2.393-1.326-4.643-3.755-5.001l0,0c-2.428-0.358-4.713,1.307-5.076,3.7l-3.312,21.812
		C917.191,311.967,918.881,314.218,921.309,314.576z"/>
	
		<rect x="933.186" y="374.656" transform="matrix(-1 -1.224647e-16 1.224647e-16 -1 1893.7928 793.1595)" class="st35" width="27.421" height="43.848"/>
	<path class="st35" d="M964.458,424.222c0.309-1.079,0.481-2.229,0.481-3.425c0-6.143-4.41-11.123-9.849-11.123h-17.01
		c-5.439,0-9.848,4.98-9.848,11.123c0,1.196,0.172,2.345,0.481,3.425H964.458z"/>
	
		<rect x="971.368" y="374.656" transform="matrix(-1 -1.224647e-16 1.224647e-16 -1 1970.1581 793.1595)" class="st35" width="27.421" height="43.848"/>
	<path class="st35" d="M1002.641,424.222c0.309-1.079,0.481-2.229,0.481-3.425c0-6.143-4.41-11.123-9.849-11.123h-17.01
		c-5.439,0-9.848,4.98-9.848,11.123c0,1.196,0.172,2.345,0.481,3.425H1002.641z"/>
	<rect x="512.125" y="334.731" class="st36" width="62.753" height="81.153"/>
	<path class="st34" d="M580.863,389.513c-0.33-2.796-1.977-7.554-5.385-7.689c-2.914-0.116-5.035,1.266-8.005,0.128
		c-3.583-1.372-5.512-4.963-4.401-8.671c1.047-3.495,4.072-7.099,2.052-10.909c-0.305-0.576-0.724-1.048-1.215-1.436
		c1.124-2.482,1.849-5.283,1.87-7.623c0.038-4.306-2.765-7.841-6.595-9.557c-4.78-2.141-10.095-1.085-14.874,0.465
		c-1.421,0.461-0.813,2.712,0.62,2.248c3.607-1.17,7.405-2.102,11.195-1.289c4.436,0.951,7.668,4.502,7.204,9.145
		c-0.192,1.925-0.9,3.763-1.692,5.526c-4.371-1.105-10.338,1.58-7.487,5.657c1.929,2.759,5.564,1.577,7.362-0.606
		c0.443-0.539,0.867-1.147,1.265-1.805c0.725,0.904,0.707,2.079,0.487,3.343c-0.291,1.673-1.189,3.148-1.847,4.693
		c-1.853,4.359-1.014,9.142,3.077,11.94c2.28,1.559,5.175,2.065,7.88,1.701c1.929-0.26,3.089-0.796,4.733,0.921
		c2.04,2.131,2.235,7.48-1.036,8.534c-1.422,0.458-0.814,2.71,0.62,2.248C579.732,395.498,581.233,392.647,580.863,389.513z
		 M559.585,363.613c-0.542-0.57-1.083-1.141-1.625-1.711c0.235-0.333,1.939-0.171,2.725-0.026c-0.082,0.162-0.16,0.326-0.251,0.482
		C560.15,362.776,559.868,363.194,559.585,363.613z"/>
	<path class="st37" d="M532.544,391.592c-0.234-2.62-2.471-3.715-4.793-4.142c-1.79-0.329-3.552-0.567-4.822-2.013
		c-1.766-2.011-1.508-5.083,0.432-6.858c0.096-0.029,0.177-0.063,0.258-0.097c0.857,0.544,1.88,0.842,2.751,0.392
		c1.139-0.59,1.053-2.044,0.038-2.699c-0.825-0.532-1.827-0.315-2.731,0.171c-0.133-0.167-0.265-0.334-0.398-0.501
		c-0.866-1.507-0.487-3.305,0.347-4.719c1.111-1.883,3.02-3.093,4.827-4.223c0.895-0.56,0.071-1.982-0.83-1.419
		c-3.679,2.301-8.964,7.061-5.388,11.747c0.023,0.031,0.05,0.062,0.075,0.093c-0.221,0.2-0.421,0.401-0.585,0.589
		c-1.405,1.606-1.994,3.851-1.45,5.924c0.54,2.059,2.094,3.774,4.069,4.542c1.162,0.452,2.425,0.514,3.631,0.784
		c1.085,0.243,2.032,0.596,2.569,1.635c0.898,1.737-0.149,3.249-1.922,3.638c-0.399,0.088-0.734,0.613-0.574,1.011
		c1.302,3.234,1.328,7.204-2.712,8.324c-2.799,0.776-5.784-0.11-8.635,0.202c-4.535,0.496-8.473,3.03-11.05,6.747
		c-0.604,0.871,0.82,1.694,1.419,0.829c1.936-2.792,4.771-4.838,8.091-5.65c3.179-0.777,6.367,0.159,9.557-0.336
		c5.219-0.81,6.645-5.358,5.183-9.808C531.571,395.066,532.717,393.519,532.544,391.592z"/>
	<rect x="531.04" y="349.721" class="st38" width="7.69" height="3.104"/>
	<rect x="540.036" y="349.721" class="st38" width="7.69" height="3.104"/>
	<rect x="531.04" y="357.288" class="st38" width="7.69" height="3.104"/>
	<rect x="540.036" y="357.288" class="st38" width="7.69" height="3.104"/>
	<rect x="531.04" y="364.209" class="st38" width="7.69" height="3.104"/>
	<rect x="540.036" y="364.209" class="st38" width="7.69" height="3.104"/>
	<rect x="531.04" y="371.776" class="st38" width="7.69" height="3.104"/>
	<rect x="540.036" y="371.776" class="st38" width="7.69" height="3.104"/>
	<rect x="531.04" y="378.131" class="st38" width="7.69" height="3.104"/>
	<rect x="540.036" y="378.131" class="st38" width="7.69" height="3.104"/>
	<rect x="531.04" y="385.698" class="st38" width="7.69" height="3.104"/>
	<rect x="540.036" y="385.698" class="st38" width="7.69" height="3.104"/>
	<rect x="531.04" y="392.619" class="st38" width="7.69" height="3.104"/>
	<rect x="540.036" y="392.619" class="st38" width="7.69" height="3.104"/>
	<rect x="531.04" y="400.186" class="st38" width="7.69" height="3.104"/>
	<rect x="540.036" y="400.186" class="st38" width="7.69" height="3.104"/>
	<path class="st39" d="M568.865,284.464c-0.439-2.763-0.878-5.526-1.316-8.289c-0.366-2.305-2.645-4.818-4.571-5.944
		c-2.132-1.248-5.274-1.776-7.665-1.003c-2.407,0.779-4.729,2.271-5.944,4.571c-1.326,2.511-1.446,4.877-1.003,7.665l1.316,8.289
		c0.366,2.305,2.646,4.818,4.571,5.945c2.132,1.247,5.275,1.776,7.665,1.003c2.406-0.779,4.729-2.27,5.944-4.571
		C569.189,289.618,569.308,287.252,568.865,284.464z"/>
	<path class="st40" d="M628.852,190.439c-7.367-17.974-35.319-17.974-42.688,0c-1.917,4.327-4.252,9.401-7.265,9.654l0,0
		c-2.994,0.3-5.742-7.238-2.838-14.222c10.856-26.482,52.037-26.482,62.894,0c2.904,6.985,0.161,14.527-2.838,14.222l0,0
		C633.108,199.84,630.766,194.766,628.852,190.439z"/>
	<path class="st41" d="M638.294,249.776v-43.37c0.403,0.61,0.839,1.307,1.291,2.08c-0.318-9.702-0.245-19.308,2.489-28.689
		c-8.444-2.655-20.575-4.327-34.087-4.327c-16.427,0-25.867,0.599-34.055,4.307c-0.077,0.098-5.125,2.064-5.203,2.161
		c-0.007,0.012-0.012,0.019-0.019,0.031c-0.281,0.725-0.551,1.455-0.818,2.187c0.055,2.926-1.134,6.723-1.253,9.535
		c-0.15,3.539-0.05,7.081-0.008,10.622c0.001,0.105,0.002,0.191,0.003,0.288c0.008,0.141,0.017,0.278,0.026,0.438
		c0.106,1.844,0.193,3.688,0.3,5.532c0.237,4.068,0.51,8.133,0.767,12.199c0.026,0.411,0.047,0.823,0.073,1.234
		c0.654-0.092,1.314-0.184,1.987-0.273c2.788-5.557,6.405,14.382,8.163,11.801v50.285h60.344v-4.644
		c-0.24-0.968-0.382-2.007-0.379-3.135c0.013-5.366,0.166-10.707,0.567-16.037c-0.364-1.151-0.567-2.424-0.567-3.822v-5.39
		C637.915,251.702,638.061,250.707,638.294,249.776z"/>
	<path class="st41" d="M577.456,286.016l0.464-6.567h30.454h29.921v10.395c-1.817,39.171-1.369,100.572-2.011,122.452l-27.181-0.758
		c0.941-32.08,1.262-71.746,1.589-104.914h-2.318h-4.369c-0.563,23.192,0.615,73.139,1.547,104.914l-19.764,0.758
		C585.122,389.579,574.227,321.122,577.456,286.016z"/>
	<path class="st8" d="M601.782,419.325c-0.296-0.891-0.46-1.84-0.46-2.827c0-5.071,4.221-9.182,9.427-9.182h16.281
		c5.206,0,9.426,4.111,9.426,9.182c0,0.987-0.164,1.936-0.46,2.827H601.782z"/>
	<rect x="575.241" y="278.751" class="st8" width="64.534" height="11.302"/>
	<rect x="598.829" y="283.488" class="st42" width="4.986" height="1.34"/>
	<path class="st8" d="M568.438,419.325c-0.296-0.891-0.46-1.84-0.46-2.827c0-5.071,4.221-9.182,9.427-9.182h16.281
		c5.206,0,9.426,4.111,9.426,9.182c0,0.987-0.164,1.936-0.46,2.827H568.438z"/>
	<rect x="575.241" y="278.751" class="st8" width="33.133" height="11.302"/>
	<path class="st43" d="M619.157,175.844c0.015,0.166-0.068,0.688-0.068,0.856c0,4.388-4.904,7.947-10.954,7.947
		c-6.049,0-10.969-4.366-10.969-8.755c0-0.002,5.397-0.406,10.821-0.422C613.467,175.454,618.974,175.826,619.157,175.844z"/>
	<polygon class="st30" points="607.254,190.801 619.795,179.284 619.818,166.05 594.782,166.009 594.759,179.242 	"/>
	
		<ellipse transform="matrix(0.97 -0.2431 0.2431 0.97 -12.5169 157.1139)" class="st30" cx="630.375" cy="129.276" rx="5.841" ry="5.146"/>
	<path class="st44" d="M581.164,136.889c-4.52-19.027,48.135-24.807,51.108-12.289c0.654,2.754,3.509,14.771,4.163,17.525
		c2.974,12.518-6.005,25.263-20.202,28.676c-14.197,3.414-27.933-3.869-30.906-16.387
		C584.672,151.66,581.818,139.643,581.164,136.889z"/>
	<path class="st45" d="M688.098,317.543c0-26.822-40.233-26.822-40.233,0c-1.091,0-2.182,0-3.273,0c0-31.186,46.779-31.186,46.779,0
		C690.28,317.543,689.19,317.543,688.098,317.543z"/>
	<rect x="613.214" y="316.059" class="st46" width="110.541" height="49.028"/>
	<rect x="607.415" y="306.98" class="st47" width="122.308" height="23.313"/>
	<rect x="655.389" y="325.232" class="st45" width="24.778" height="12.056"/>
	
		<ellipse transform="matrix(0.9848 -0.1735 0.1735 0.9848 -16.1082 103.8081)" class="st30" cx="585.883" cy="144.067" rx="6.901" ry="6.415"/>
	
		<ellipse transform="matrix(0.984 -0.1784 0.1784 0.984 -15.0979 109.6774)" class="st26" cx="602.384" cy="138.8" rx="2.92" ry="2.573"/>
	
		<ellipse transform="matrix(0.984 -0.1784 0.1784 0.984 -13.5281 114.5696)" class="st26" cx="630.375" cy="132.516" rx="2.92" ry="2.573"/>
	<path class="st8" d="M589.779,298.344L589.779,298.344c-4.977,0-9.05-4.072-9.05-9.05v-9.45c0-4.977,4.072-9.05,9.05-9.05l0,0
		c4.977,0,9.05,4.072,9.05,9.05v9.45C598.829,294.272,594.757,298.344,589.779,298.344z"/>
	<path class="st8" d="M627.387,298.602L627.387,298.602c-4.977,0-9.05-4.072-9.05-9.05v-9.45c0-4.977,4.072-9.05,9.05-9.05h0
		c4.977,0,9.05,4.072,9.05,9.05v9.45C636.436,294.53,632.364,298.602,627.387,298.602z"/>
	<path class="st40" d="M560.294,208.205c-5.958,0-9.243,4.595-9.947,9.947c-2.538,19.297-3.153,38.714-1.842,58.133
		c0.858,12.705,20.758,12.801,19.894,0c-1.311-19.419-0.695-38.837,1.842-58.133C570.943,212.816,565.167,208.205,560.294,208.205z"
		/>
	<path class="st39" d="M682.046,294.54c0.223-2.789,0.447-5.578,0.67-8.366c0.187-2.326-1.438-5.305-3.045-6.853
		c-1.779-1.714-4.708-2.967-7.214-2.778c-2.523,0.191-5.13,1.095-6.853,3.045c-1.88,2.128-2.552,4.4-2.778,7.214l-0.671,8.366
		c-0.186,2.326,1.438,5.305,3.045,6.853c1.779,1.714,4.709,2.967,7.214,2.777c2.522-0.191,5.13-1.094,6.853-3.045
		C681.149,299.626,681.821,297.354,682.046,294.54z"/>
	<path class="st40" d="M682.977,281.346c0.578-36.732-13.477-72.444-38.253-99.444c-8.68-9.459-22.421,4.939-13.799,14.334
		c21.364,23.281,32.659,54.236,32.163,85.737C662.887,294.77,682.775,294.147,682.977,281.346z"/>
	<rect x="619.818" y="201.295" class="st48" width="6.909" height="6.909"/>
	<path class="st44" d="M630.181,115.866c-13.041-8.552-31.116-5.923-44.431,0.669c-5.858,2.9-1.732,12.228,4.172,9.305
		c9.795-4.849,24.36-8.225,34.229-1.753C629.625,127.675,635.682,119.473,630.181,115.866z"/>
	<path class="st8" d="M633.7,116.431c-0.386-0.874-0.781-1.784-1.191-2.697c-3.126-3.025-2.877-8.901,0.531-11.832
		c-0.467-0.835-1.174-1.578-2.191-2.113c-7.758-4.082-17.459-3.4-25.952-2.815c-8.93,0.615-18.1,2.98-24.83,9.199
		c-5.428,5.017-7.951,11.73-8.615,18.962c2.188,4.287,4.014,8.761,5.378,13.554c2.282,8.019,4.223,15.161,10.701,20.432
		c0.664-1.19,0.82-2.679,0.089-4.307c-0.652-1.449-1.319-3.068-1.968-4.796c-7.381-0.491-6.021-12.229,1.682-12.229
		c2.601,0,4.207,1.325,4.919,3.1c-0.167-2.35-0.038-4.612,0.536-6.707c-5.682-3.447-4.002-14.459,4.384-14.459
		c0.781,0,1.49,0.104,2.143,0.278c1.267-1.201,3.011-1.98,5.233-1.98c0.608,0,1.162,0.076,1.692,0.183
		c1.809-0.653,3.61-1.326,5.439-1.927c2.593-0.853,5.952-0.735,8.333-1.912c6.056-2.991,11.323,2.349,11.292,7.476
		c0.289-0.177,0.557-0.386,0.801-0.624C633.714,120.356,634.677,118.641,633.7,116.431z"/>
	<path class="st49" d="M420.047,395.945c-27.089-6.566-107.44-11.327-202.359-11.327c-117.16,0-212.137,7.254-212.137,16.201
		c0,8.017,76.237,14.672,176.357,15.971c27.089,6.566,107.44,11.327,202.36,11.327c117.16,0,212.137-7.253,212.137-16.201
		C596.404,403.899,520.167,397.244,420.047,395.945z"/>
	<path class="st5" d="M131.873,152.635c4.934-0.22,9.371,3.565,14.153,4.289c2.756,0.417,6.49,1.322,8.397-1.067
		c-9.031-7.137-19.57-11.365-31.266-12.758c-5.288-0.63-6.467,8.017-1.188,8.645c2.636,0.314,5.188,0.804,7.664,1.459
		C130.295,152.877,131.043,152.672,131.873,152.635z"/>
	<path class="st50" d="M262.517,299.001l-0.392-5.46h-51.074v8.642c0.598,12.682,0.906,28.164,1.091,43.417
		c1.71-1.198,4.139-1.552,5.951-0.882c3.233,1.196,4.281,4.368,3.71,7.465c0.897-0.342,1.844-0.499,2.732-0.412
		c0.378,0.037,0.728,0.12,1.069,0.215c0.014-0.703,0.053-1.406,0.18-2.098c0.301-1.651,0.926-2.97,2.16-4.106
		c1.225-1.128,2.955-1.507,4.568-1.418c0.726,0.04,1.485,0.284,2.184,0.65c-0.111-9.936-0.203-19.708-0.294-28.88h5.657
		c0.176,7.134,0.151,17.316,0.009,28.648c3.516-0.495,7.748,1.843,7.655,6.5c-0.001,0.07-0.003,0.139-0.005,0.209
		c1.212-0.738,2.657-1.123,3.976-1.05c0.362,0.02,0.732,0.092,1.098,0.202c2.55-1.168,5.933-0.567,7.745,1.596
		C262.419,332.933,263.812,312.848,262.517,299.001z"/>
	<path class="st25" d="M336.868,227.495c-2.233-2.716-5.806-3.777-9.197-3.261c-0.182,0.027-0.361,0.07-0.539,0.113
		c-1.263-0.12-2.559,0.058-3.712,0.578c-1.611,0.727-3.235,2.32-3.823,4.028c-1.179,3.426,0.061,7.458,3.27,9.194
		c1.195,1.255,2.394,2.401,4.117,3.087c4.029,1.603,8.692,0.058,10.794-3.768C339.512,234.306,339.175,230.303,336.868,227.495z"/>
	<path class="st31" d="M264.146,247.316c3.039,5.168,17.551,3.39,18.911,3.217c3.44-16.549-7.773-50.831-19.232-62.494
		c-4.147-4.224-9.468-7.45-9.468-7.45s8.776,25.549,7.949,47.568L264.146,247.316z"/>
	<path class="st51" d="M316.533,240.027c1.519-0.039,1.131-2.371,1.09-3.898l-0.08-3.146c-0.038-1.527-1.301-2.734-2.82-2.695
		l-11.96,0.312c-1.517,0.039-2.716,1.31-2.676,2.838l0.14,5.505c0.041,1.529,1.3,3.572,2.817,3.534L316.533,240.027z"/>
	<path class="st31" d="M270.594,243.155c-0.2-1.826-9.23-8.712-6.028-11.187c1.623-1.255,7.198-2.187,15.683-2.253
		c8.246-0.064,19.255,0.733,31.259,0.048c0,0,3.599,11.006,4.659,12.707c0,0-23.022,9.936-36.672,8.373
		C267.754,249.501,270.975,246.634,270.594,243.155z"/>
	<path class="st31" d="M237.32,300.494c21.625,0,33.353-4.321,33.353-4.321s1.137-95.638-6.927-107.407
		c-8.065-11.768-17.634-10.133-26.426-10.133c-8.793,0-25.291,0.382-33.356,12.151c-8.065,11.769,0,105.389,0,105.389
		S215.693,300.494,237.32,300.494z"/>
	<path class="st52" d="M223.993,213.591c-8.83-2.432-17.285,0-17.285,0s-0.017,10.938,0,14.413c1.486,2.622,6.318,5.804,8.362,6.179
		c2.044,0.373,7.062-3.37,8.922-5.617V213.591z"/>
	<path class="st9" d="M243.175,199.337l-6.41-20.586c-5.262,0.203-10.552,0.107-16.487,1.837l-4.117,9.488l9.034,8.803l-5.274,6.923
		c0,0,19.205,3.6,25.839,14.122L243.175,199.337z"/>
	<path class="st9" d="M243.175,199.337l2.585,20.587l9.179-12.322l-2.566-9.414l7.304,2.215l-4.433-19.065
		c-2.555-1.253-4.702-1.742-7.126-2.068L243.175,199.337z"/>
	<path class="st25" d="M220.278,180.589l23.969,17.669l10.109-17.669c-6.26-1.83-12.619-1.944-17.037-1.944
		S226.539,178.758,220.278,180.589z"/>
	<path class="st8" d="M325.856,248.816c-0.895,3.082-4.101,4.85-7.163,3.948l-28.971-8.528c-3.059-0.902-4.814-4.13-3.921-7.212
		l12.477-42.981c0.892-3.082,4.097-4.849,7.157-3.95l28.972,8.529c3.061,0.901,4.814,4.13,3.922,7.212L325.856,248.816z"/>
	<path class="st9" d="M323.311,243.449c-0.758,2.608-3.473,4.109-6.065,3.342l-24.539-7.222c-2.592-0.764-4.078-3.499-3.322-6.108
		l10.567-36.404c0.755-2.61,3.471-4.108,6.064-3.345l24.539,7.225c2.593,0.763,4.079,3.499,3.322,6.108L323.311,243.449z"/>
	<polygon class="st37" points="329.224,208.02 302.411,200.127 303.271,197.338 330.084,205.232 	"/>
	<polygon class="st37" points="328.036,213.339 301.223,205.445 302.083,202.657 328.893,210.552 	"/>
	<polygon class="st37" points="323.049,229.297 296.237,221.404 297.097,218.615 323.908,226.508 	"/>
	<polygon class="st37" points="321.859,234.616 295.048,226.722 295.906,223.935 322.721,231.828 	"/>
	<polygon class="st37" points="320.299,239.936 293.489,232.041 294.348,229.254 321.159,237.148 	"/>
	<path class="st53" d="M195.944,217.85c10.868-3.63,19.223-12.046,18.676-21.516c-0.273-4.725-2.189-9.175-5.355-12.903
		c7.982-3.893,8.391-4.745,15.521-4.875c0.788,3.636,6.967,9.107,10.009,12.148c0.763,0.763,4.925,6.144,8.313,9.875
		c0.096,33.265,1.68,66.503,2.37,99.756c-2.498,0.1-5.139,0.159-7.933,0.159c-24.382,0-37.606-4.321-37.606-4.321
		S195.398,249.425,195.944,217.85z"/>
	<path class="st53" d="M249.393,201.814c2.456-5.748,1.348-19.447,2.357-22.696c5.418,0.935,10.743,3.399,15.586,9.667
		c9.092,11.766,7.81,107.389,7.81,107.389s-8.133,2.655-23.397,3.802C251.065,267.255,249.524,234.547,249.393,201.814z"/>
	
		<ellipse transform="matrix(0.9993 -0.0365 0.0365 0.9993 -5.5463 7.7367)" class="st30" cx="209.271" cy="155.88" rx="6.064" ry="5.251"/>
	<path class="st25" d="M262.911,137.411c-1.092-19.926-55.222-10.371-54.503,2.738c0.158,2.884,0.848,15.469,1.006,18.353
		c0.719,13.109,13.405,22.988,28.545,22.227c15.14-0.761,26.677-11.856,25.958-24.965
		C263.759,152.88,263.07,140.295,262.911,137.411z"/>
	
		<ellipse transform="matrix(0.9993 -0.0365 0.0365 0.9993 -5.4537 9.5647)" class="st26" cx="259.418" cy="154.255" rx="3.032" ry="2.626"/>
	
		<ellipse transform="matrix(0.9993 -0.0365 0.0365 0.9993 -5.4735 8.4783)" class="st26" cx="229.634" cy="154.255" rx="3.032" ry="2.626"/>
	<path class="st27" d="M265.55,118.593c0.002-0.344,0.004-0.687,0.003-1.023C265.549,115.611,265.571,118.706,265.55,118.593z"/>
	<path class="st27" d="M204.486,132.515c-0.399-0.22-0.762-0.481-1.101-0.764c0.309-5.289,1.616-10.452,2.273-15.712
		c0.038-0.307,0.062-0.619,0.078-0.934c0.967-0.49,1.953-0.951,2.956-1.387c0.356-4.309,3.297-0.514,7.493-2.53
		c12.092-5.809,25.859-5.738,38.277-0.988c4.178,1.598,6.288,4.56,6.842,7.811c0.256-0.133,0.512-0.268,0.768-0.422
		c1.04-0.627,2.118-1.391,3.136-2.189c0.151,1.165,0.315,2.252,0.322,2.549c0.01,0.437,0.017,0.618,0.021,0.643
		c-0.017,3.088-0.086,6.449,0.689,9.453c0.156,4.994,0.312,9.987,0.467,14.98c0.064,2.07-0.92,3.601-2.369,4.606
		c0.437-2.821-0.465-5.946-2.701-7.499c-0.128-1.639-0.297-3.265-0.529-4.769c-0.726,1.176-1.956,2.129-3.801,2.621
		c-11.26,3.001-22.093,2.72-33.153-0.975c-0.946-0.316-1.702-0.759-2.321-1.274c-0.747,3.172-1.259,6.43-1.299,9.668
		c-0.047,3.836-2.116,7.41-6.349,7.894c-1.062,0.121-2.225-0.054-3.329-0.462c0.005,0.111,0.01,0.23,0.015,0.335
		c-2.562-0.256-5.062-1.571-6.029-3.763C202.355,143.775,202.227,137.952,204.486,132.515z"/>
	<path class="st31" d="M212.331,188.674c-2.074-0.382-3.704-1.377-4.887-2.73c-0.828,0.438-1.625,0.892-2.333,1.35
		c-14.908,9.646-27.659,35.665-26.869,52.555c0.237,5.026,13.769-1.711,22.255-0.597l-0.095-13.723
		C202.164,210.974,208.372,196.64,212.331,188.674z"/>
	<path class="st25" d="M208.008,285.941c0.634,1.388,2.609,0.111,3.988-0.528h0c2.947-1.364,4.238-4.876,2.884-7.844l-3.692-8.092
		c-0.634-1.389-2.266-1.997-3.645-1.359l-4.969,2.301c-1.381,0.638-2.75,2.609-2.116,3.998L208.008,285.941z"/>
	<path class="st31" d="M183.075,235.292c1.589-0.903,4.316-11.976,7.834-9.986c1.784,1.009,6.068,5.846,9.471,13.677
		c3.308,7.607,5.678,18.07,11.031,28.912c0,0-8.627,7.669-9.76,9.319c0,0-18.137-17.398-22.087-30.651
		C176.164,235.163,180.048,237.017,183.075,235.292z"/>
	<path class="st12" d="M285.085,391.025c-2.19-4.328-7.367-3.751-12.845-4.372c-4.207-0.477-7.814-4.809-7.557-8.052
		c1.069-13.508,1.968-27.015,1.051-40.547c-0.527-0.242-1.1-0.467-1.787-0.661c-5.722-1.612-12.856-1.714-18.837-1.77
		c-1.983-0.019-4.049-0.03-5.871,0.41c-0.25,18.717-1.531,37.409-2.505,56.108c0.117,4.53,0.156,9.096,0.664,13.579
		c0.355,3.132,1.265,5.621,5.383,6.596c5.51,1.304,12.995,0.334,18.742,0.306c6.835-0.033,14.327,0.473,21.089-0.359
		c3.097-0.382,5.197-1.801,6.576-3.767C289.224,402.527,287.787,396.365,285.085,391.025z"/>
	<path class="st12" d="M254.789,391.025c-2.19-4.328-7.367-3.751-12.845-4.372c-4.207-0.477-7.814-4.809-7.557-8.052
		c1.069-13.508,1.968-27.015,1.051-40.547c-0.527-0.242-1.1-0.467-1.787-0.661c-5.722-1.612-12.856-1.714-18.837-1.77
		c-1.983-0.019-4.049-0.03-5.871,0.41c-0.25,18.717-1.531,37.409-2.505,56.108c0.117,4.53,0.156,9.096,0.664,13.579
		c0.355,3.132,1.265,5.621,5.383,6.596c5.51,1.304,12.995,0.334,18.742,0.306c6.835-0.033,14.327,0.473,21.089-0.359
		c3.097-0.382,5.197-1.801,6.576-3.767C258.928,402.527,257.491,396.365,254.789,391.025z"/>
	<rect x="395.8" y="297.478" class="st23" width="22.6" height="14.468"/>
	<path class="st5" d="M402.8,417.377L402.8,417.377c-8.746,1.078-16.786-5.196-17.864-13.945L371.788,296.71
		c-1.078-8.746,5.199-16.786,13.945-17.864s16.783,5.199,17.861,13.945l13.149,106.722C417.82,408.263,411.546,416.3,402.8,417.377"
		/>
	<rect x="382.817" y="215.928" class="st19" width="1.448" height="17.919"/>
	<rect x="411.576" y="215.928" class="st19" width="1.448" height="17.919"/>
	<rect x="440.332" y="215.928" class="st19" width="1.448" height="17.919"/>
	<polygon class="st13" points="407.096,210.917 389.823,193.741 388.075,175.112 419.126,172.199 420.873,190.828 	"/>
	<path class="st14" d="M380.116,157.063c0.777,8.28-11.644,9.446-12.421,1.165S379.339,148.783,380.116,157.063"/>
	<path class="st14" d="M436.137,151.807c0.777,8.28-11.644,9.446-12.421,1.165S435.36,143.527,436.137,151.807"/>
	<path class="st15" d="M428.051,133.77c-2.214-23.594-57.348-10.281-55.891,5.244l2.004,21.357
		c1.416,15.096,14.429,26.665,29.569,25.783c16.057-0.936,27.847-14.78,26.358-30.647L428.051,133.77z"/>
	<path class="st23" d="M381.813,371.884c1.158-0.779,2.312-1.565,3.453-2.371c0.403-0.283,0.803-0.57,1.202-0.859
		c1.925-1.502,3.835-3.016,5.676-4.628c3.253-2.848,6.654-5.944,9.352-9.414c0.368-0.537,1.176-1.684,1.405-2.011
		c0.646-0.925,1.269-1.865,1.868-2.823c1.099-1.757,3.093-4.342,3.53-6.44c-0.013,0.065-0.024,0.113-0.036,0.173
		c0.076-0.292,0.157-0.572,0.232-0.77c0.4-1.055,0.769-2.125,1.105-3.204c0.335-1.078,0.636-2.169,0.899-3.268
		c0.129-0.539,0.631-4.79,0.529-2.446c-0.104,2.384,0.085-1.659,0.114-2.165c0.088-1.492,0.112-2.985,0.095-4.479
		c-0.03-2.566-0.198-5.13-0.393-7.689c-0.209-2.748-0.45-5.495-0.705-8.24c-0.129-1.391-0.27-2.782-0.402-4.173
		c-0.08-0.78-0.125-1.23-0.137-1.354c-0.031-0.287-0.061-0.574-0.092-0.861c-1.281-11.811-2.831-23.59-4.38-35.367
		c-1.029-7.822,2.383-16.593,10.749-18.255c7.118-1.414,16.718,2.789,17.823,11.187c1.702,12.933,3.384,25.867,4.749,38.841
		c1.45,13.775,3.355,27.533,0.79,41.25c-4.635,24.781-23.65,42.818-43.247,55.999c-6.44,4.332-16.656,0.824-19.985-6.118
		C372.227,384.52,374.94,376.507,381.813,371.884z"/>
	<path class="st54" d="M401.951,108.261c-19.02,0-31.189,15.287-31.189,34.307v7.18l6.239,5.295V139.45l37.425-12.475l12.475,12.475
		v15.593l6.239-5.295v-7.18c0-12.475-3.121-24.95-18.714-28.068l-3.118-6.239H401.951z"/>
	<path class="st16" d="M417.379,153.567c0.388,4.14-5.823,4.723-6.212,0.583C410.778,150.01,416.99,149.427,417.379,153.567"/>
	<path class="st16" d="M392.537,155.898c0.388,4.14-5.823,4.723-6.212,0.583C385.937,152.34,392.149,151.757,392.537,155.898"/>
	<path class="st55" d="M420.75,192.469l-15.593,3.118l-15.596-3.118c0,0-44.827-5.722-16.365,100.333h67.137
		C467.463,176.54,420.75,192.469,420.75,192.469"/>
	<polygon class="st56" points="402.037,204.944 400.65,273.62 411.394,276.779 408.276,204.944 411.394,201.826 405.155,195.587 
		398.919,201.826 	"/>
	<path class="st9" d="M434.317,129.297c-2.865-15.162-15.329-26.525-30.363-28.264c-1.494-2.67-4.459-4.355-7.703-4.051
		c-3.241,0.304-5.843,2.512-6.815,5.413c-14.446,4.505-24.581,17.988-24.576,33.418c-2.769,1.249-4.292,2.519-4.18,3.705
		c0.367,3.908,18.223,5.426,39.881,3.394c21.661-2.032,38.92-6.845,38.554-10.753C439.003,130.974,437.273,130.009,434.317,129.297"
		/>
	<polygon class="st35" points="440.312,298.22 372.215,298.22 369.835,290.871 441.78,290.871 	"/>
	<path class="st17" d="M445.584,278.27c0.542-5.597,1.165-11.181,1.877-16.754c0.343-2.687,0.783-5.294,1.325-7.941
		c0.289-1.293,0.555-2.591,0.802-3.894c0.015-0.355,0.034-0.834,0.06-1.466c0.086-2.18,0.494-4.223,1.15-6.105v-31.564
		c-0.029-0.065-0.055-0.133-0.084-0.198c-0.732-1.623-1.518-3.256-2.452-4.76c0.302,0.627-2.382-2.727-2.795-3.158
		c-3.057-3.188-4.508-4.248-8.6-7.19c-1.975-1.42-3.976-2.795-5.98-4.163h-4.897c-4.096,1.12-8.293,1.709-12.409,2.748
		c-0.547,0.138-0.121,2.461-0.647,1.582l-0.971,107.535l32.063,0.961C444.215,295.333,444.756,286.819,445.584,278.27z"/>
	<path class="st17" d="M391.309,191.322c-0.388-0.056-0.819-0.046-1.305,0.044c-7.431,1.368-14.759,2.879-22.004,4.98
		c-4.568,1.324-5.995,1.803-8.851,3.332v31.66c1.169,2.384,1.897,5.003,2.064,7.654c0.771,12.239,1.774,24.468,2.255,36.724
		c0.202,5.147,0.088,12.215,0.702,16.304c0.535,3.56,1.267,7.053,1.699,10.639c0.05,0.414,0.089,0.829,0.129,1.244h35.715
		c0,0-3.792-106.847-3.793-106.862c0.026,0.726-3.254-2.759-3.416-3.006C393.614,192.68,392.77,191.533,391.309,191.322z"/>
	<path class="st56" d="M380.431,242.759L380.431,242.759c-1.026,0-1.856-0.831-1.856-1.856v-10.741c0-1.026,0.831-1.856,1.856-1.856
		s1.856,0.831,1.856,1.856v10.741C382.287,241.928,381.456,242.759,380.431,242.759"/>
	<path class="st57" d="M386.124,239.699L386.124,239.699c-1.026,0-1.856-0.831-1.856-1.856v-10.741c0-1.026,0.831-1.856,1.856-1.856
		s1.856,0.831,1.856,1.856v10.741C387.98,238.868,387.149,239.699,386.124,239.699"/>
	<rect x="374.867" y="235.531" class="st58" width="18.799" height="23.266"/>
	<path class="st8" d="M426.97,212.288c-1.862,2.153-4.864-0.048-7.018-0.412c-1.545-0.261-3.198,0.154-4.027,1.566
		c-0.315,0.537,0.52,1.024,0.834,0.487c1.467-2.5,4.779-0.363,6.754,0.078c1.483,0.331,3.098,0.167,4.139-1.036
		C428.058,212.502,427.377,211.817,426.97,212.288z"/>
	<path class="st8" d="M426.97,210.021c-1.862,2.153-4.864-0.048-7.018-0.412c-1.545-0.261-3.198,0.154-4.027,1.566
		c-0.315,0.537,0.52,1.024,0.834,0.487c1.467-2.5,4.779-0.363,6.754,0.078c1.483,0.331,3.098,0.167,4.139-1.036
		C428.058,210.235,427.377,209.549,426.97,210.021z"/>
	<path class="st59" d="M407.248,116.737c-2.896,4.061-8.491,0.711-12.308,0.429c-2.738-0.202-5.553,0.792-6.767,3.391
		c-0.462,0.989,1.074,1.7,1.535,0.713c2.149-4.6,8.275-1.414,11.794-0.969c2.641,0.334,5.431-0.215,7.05-2.485
		C409.181,116.933,407.882,115.848,407.248,116.737z"/>
	<path class="st59" d="M406.877,112.782c-2.896,4.061-8.491,0.711-12.308,0.429c-2.738-0.203-5.553,0.792-6.767,3.391
		c-0.462,0.989,1.074,1.7,1.535,0.713c2.149-4.6,8.275-1.414,11.794-0.969c2.641,0.334,5.431-0.215,7.05-2.485
		C408.81,112.978,407.511,111.893,406.877,112.782z"/>
	<path class="st31" d="M352.006,248.711l-32.009,2.139c-2.143,0.143-3.997-1.478-4.14-3.621v0c-0.143-2.143,1.478-3.997,3.621-4.14
		l32.009-2.139c2.143-0.143,3.997,1.478,4.14,3.621l0,0C355.77,246.714,354.149,248.567,352.006,248.711z"/>
	<path class="st15" d="M372.034,259.583c2.383,4.999,8.754,7.998,13.981,5.397c5.028-2.502,7.952-8.62,5.397-13.981
		c-1.979-4.153-3.957-8.307-5.937-12.46c-2.382-5-8.753-7.998-13.981-5.397c-5.028,2.502-7.951,8.62-5.397,13.981
		C368.077,251.276,370.055,255.429,372.034,259.583z"/>
	<path class="st60" d="M393.081,393.273c-2.449-12.062-12.663-20.169-22.671-18.137l8.869,43.68
		C389.288,416.784,395.531,405.335,393.081,393.273z"/>
	<path class="st60" d="M408.988,399.8c-10.278,0-18.609,8.396-18.609,18.609h37.218C427.597,408.196,419.266,399.8,408.988,399.8z"
		/>
	<path class="st9" d="M380.75,232.532c-7.365-4.301-15.453-7.628-23.832-9.304c-0.768-0.154-1.544-0.288-2.319-0.423
		c6.09-2.218,12.307-4.032,18.621-5.503c13.689-3.189,7.894-24.261-5.808-21.069c-10.326,2.405-20.27,5.829-29.98,10.08
		c-9.707,4.25-23.278,10.253-19.945,23.453c3.134,12.412,14.999,13.334,25.638,13.666c9.458,0.296,18.465,3.215,26.599,7.965
		C381.889,258.504,392.899,239.627,380.75,232.532z"/>
	
		<rect x="335.926" y="248.408" transform="matrix(0.9978 -0.0667 0.0667 0.9978 -21.0365 23.4258)" class="st31" width="9.132" height="157.03"/>
	<path class="st61" d="M346.143,414.363l-0.619,0.041l-3.637-54.441l24.045-1.607l1.556,23.289
		C368.352,394.584,359.081,413.498,346.143,414.363z"/>
	<path class="st61" d="M346.183,414.36l0.645-0.043l-3.637-54.441l-25.06,1.674l1.556,23.289
		C320.551,397.777,332.699,415.261,346.183,414.36z"/>
	<path class="st15" d="M447.496,300.705c-5.388-0.265-10.576,3.393-11.096,8.944l-0.74,7.907
		c-0.485,5.179,3.871,10.594,9.242,10.858c5.388,0.265,10.576-3.393,11.096-8.944l0.74-7.907
		C457.223,306.384,452.867,300.969,447.496,300.705z"/>
	<path class="st9" d="M457.145,305.342c1.065-31.09-0.185-62.18-3.684-93.083c-2.475-4.56-5.383-8.777-9.561-12.047
		c-0.523-0.41-0.917-0.862-1.208-1.336c-5.258-0.018-10.387,3.502-9.579,10.215c3.902,32.385,5.299,64.987,4.183,97.587
		c-0.185,5.377,5.617,9.591,10.592,9.257C453.708,315.543,456.961,310.735,457.145,305.342z"/>
	<path class="st18" d="M727.237,284.767"/>
	<path class="st50" d="M743.101,311.472l0.389-5.371h25.523h25.076v8.501c-1.523,32.034-1.147,82.25-1.685,100.143l-22.78-0.62
		c0.789-26.236,1.058-58.675,1.332-85.801h-1.943h-3.662c-0.472,18.967,0.515,59.814,1.297,85.801l-16.563,0.62
		C749.526,396.167,740.395,340.182,743.101,311.472z"/>
	<path class="st8" d="M766.675,419.432c-0.248-0.729-0.385-1.505-0.385-2.312c0-4.147,3.537-7.51,7.9-7.51h13.645
		c4.363,0,7.9,3.362,7.9,7.51c0,0.807-0.138,1.583-0.385,2.312H766.675z"/>
	<path class="st8" d="M738.729,419.432c-0.248-0.729-0.385-1.505-0.385-2.312c0-4.147,3.537-7.51,7.9-7.51h13.645
		c4.363,0,7.9,3.362,7.9,7.51c0,0.807-0.138,1.583-0.385,2.312H738.729z"/>
	<path class="st62" d="M741.487,260.633c-3.01,5.083-17.387,3.334-18.735,3.164c-3.409-16.279,7.7-50,19.054-61.472
		c4.108-4.155,9.38-7.328,9.38-7.328s-8.695,25.131-7.875,46.79L741.487,260.633z"/>
	<path class="st62" d="M768.064,331.259c-21.424,0-33.043-4.9-33.043-4.9c0,0.001-1.127-108.442,6.863-121.786
		c7.99-13.344,17.47-11.489,26.18-11.489c8.712,0,25.056,0.433,33.046,13.778c7.99,13.344,0,119.497,0,119.497
		S789.49,331.259,768.064,331.259z"/>
	<path class="st62" d="M781.267,227.459c8.747-2.393,17.124,0,17.124,0s0.017,10.759,0,14.178c-1.472,2.579-6.26,5.709-8.284,6.078
		c-2.025,0.367-6.996-3.315-8.839-5.525V227.459z"/>
	<path class="st62" d="M762.263,213.438l6.35-20.249c5.214,0.2,10.454,0.105,16.334,1.807l7.265,16.767l-12.136,1.224l5.225,6.81
		c0,0-10.467-3.204-17.04,7.146L762.263,213.438z"/>
	<path class="st62" d="M770.685,207.778l-2.291,20.241l-15.662-9.637l0.418-6.074l-7.236,2.179l4.392-18.754
		c2.532-1.233,4.659-1.714,7.06-2.034L770.685,207.778z"/>
	<path class="st59" d="M784.947,194.996l-22.684,18.442l-11.077-18.442c6.201-1.801,12.501-1.912,16.878-1.912
		S778.744,193.196,784.947,194.996z"/>
	<path class="st62" d="M732.353,297.552c0.364-0.595,0.904-0.983,1.513-0.983h11.873c1.092,0,1.979,1.217,1.979,2.722v13.979
		c0,1.505-0.887,2.723-1.979,2.723h-11.873c-0.213,0-0.415-0.059-0.606-0.145C732.994,311.041,732.669,304.696,732.353,297.552z"/>
	<path class="st62" d="M748.821,298.201c0,0.599-0.355,1.09-0.793,1.09h-15.711c-0.436,0-0.788-0.491-0.788-1.09l-0.398-3.996
		c0-0.6,0.353-1.087,0.79-1.087h16.107c0.437,0,0.793,0.488,0.793,1.087V298.201z"/>
	<path class="st62" d="M804.544,252.7c8.407-1.095,21.814,5.532,22.048,0.587c0.783-16.614-11.85-42.208-26.619-51.696
		c-3.922-2.518-10.534-4.945-10.534-4.945s12.576,21.041,15.199,42.555L804.544,252.7z"/>
	<path class="st63" d="M785.256,301.359L785.256,301.359c4.928-4.685,6.07-8.15,6.07-8.15c-2.218,3.569-6.384,7.641-6.384,7.641
		L785.256,301.359z"/>
	<path class="st63" d="M787.725,301.708c0.047,0.073,0.173,0.27,0.355,0.496c4.136-4.211,5.134-7.227,5.134-7.227
		C791.638,297.515,789.075,300.307,787.725,301.708z"/>
	<path class="st63" d="M790.181,302.922c0,0,0.134,0.214,0.379,0.43c3.731-3.944,4.658-6.725,4.658-6.725
		C793.773,298.949,791.59,301.433,790.181,302.922C790.21,302.899,790.151,302.944,790.181,302.922z"/>
	<path class="st63" d="M797.103,298.626c-0.628,1.366-2.584,0.109-3.951-0.519v0c-2.92-1.342-4.199-4.796-2.857-7.716l3.658-7.959
		c0.628-1.366,2.245-1.965,3.611-1.337l4.923,2.263c1.368,0.628,2.725,2.566,2.097,3.933L797.103,298.626z"/>
	<path class="st62" d="M821.805,248.805c-1.574-0.888-4.276-11.78-7.761-9.823c-1.767,0.992-6.012,5.751-9.383,13.453
		c-3.277,7.483-5.625,17.774-10.928,28.439c0,0,8.547,7.543,9.669,9.167c0,0,17.968-17.114,21.881-30.15
		C828.651,248.678,824.803,250.501,821.805,248.805z"/>
	<path class="st62" d="M734.227,254.535c-7.001-1.04-18.165,5.254-18.36,0.558c-0.652-15.78,9.868-40.089,22.167-49.101
		c3.266-2.392,8.772-4.696,8.772-4.696s-10.473,19.985-12.657,40.419L734.227,254.535z"/>
	<path class="st63" d="M740.423,298.155c0.523,1.297,2.152,0.103,3.29-0.493l0,0c2.431-1.274,3.497-4.556,2.379-7.329l-3.046-7.56
		c-0.523-1.298-1.869-1.866-3.007-1.27l-4.099,2.149c-1.139,0.596-2.269,2.438-1.746,3.736L740.423,298.155z"/>
	<path class="st62" d="M719.853,250.835c1.311-0.843,3.561-11.189,6.463-9.33c1.471,0.943,5.006,5.462,7.814,12.778
		c2.729,7.107,4.684,16.882,9.1,27.012c0,0-7.117,7.165-8.052,8.707c0,0-14.963-16.255-18.221-28.637
		C714.152,250.715,717.357,252.446,719.853,250.835z"/>
	<path class="st62" d="M782.59,296.569h18.52c0.797,0,1.508,0.348,2.005,0.891c-0.433,7.196-0.888,13.583-1.251,18.416
		c-0.242,0.07-0.489,0.118-0.753,0.118h-18.52c-1.504,0-2.723-1.219-2.723-2.723v-13.979
		C779.867,297.785,781.087,296.569,782.59,296.569z"/>
	<path class="st62" d="M778.232,298.201c0,0.599,0.49,1.09,1.09,1.09h23.786c0.6,0,1.088-0.491,1.088-1.09l0.545-3.996
		c0-0.6-0.487-1.087-1.088-1.087h-24.331c-0.6,0-1.09,0.488-1.09,1.087V298.201z"/>
	<path class="st25" d="M767.43,195.134"/>
	<path class="st64" d="M748.036,169.529c0,11.818,14.34,21.399,20.812,21.399c5.713,0,20.812-9.581,20.812-21.399v-10.44
		c0-0.271-0.007-0.538-0.018-0.805c-21.577-0.627-33.513-11.59-33.513-11.59c-4.563,3.84-6.885,7.982-8.067,11.337
		c-0.014,0.353-0.025,0.702-0.025,1.058V169.529z"/>
	<path class="st24" d="M736.44,182.983l1.421-24.762c-0.784-27.401,17.089-24.138,17.089-24.138s2.091-7.829,14.094-8.352
		c19.572-0.132,33.028,14.571,33.028,32.541v24.99c0,0-0.406,12.933,6.376,17.107c0,0-6.262,4.104-41.231,4.104
		c-30.275,0-42.207-4.809-42.207-4.809C733.227,197.708,736.44,182.983,736.44,182.983"/>
	<polygon class="st65" points="760.148,201.843 760.148,187.275 777.419,187.275 777.419,201.946 781.657,204.326 768.261,226.943 
		755.09,204.746 	"/>
	<path class="st63" d="M756.127,152.482c0,0,11.939,10.963,33.513,11.594c0.011,0.267,0.021,0.534,0.021,0.801v10.44
		c0,11.818-15.102,21.399-20.812,21.399c-6.472,0-20.815-9.581-20.815-21.399v-10.44c0-0.353,0.011-0.705,0.025-1.058
		C749.242,160.464,751.564,156.321,756.127,152.482"/>
	<path class="st57" d="M782.945,168.674c0,1.471,1.193,2.664,2.664,2.664s2.664-1.193,2.664-2.664c0-1.471-1.193-2.664-2.664-2.664
		S782.945,167.203,782.945,168.674"/>
	<path class="st57" d="M761.019,168.674c0,1.471,1.193,2.664,2.664,2.664s2.664-1.193,2.664-2.664c0-1.471-1.193-2.664-2.664-2.664
		S761.019,167.203,761.019,168.674"/>
	<rect x="734.967" y="228.019" class="st66" width="20.123" height="7.019"/>
	<polygon class="st67" points="267.034,425.218 311.342,425.218 307.24,397.984 272.375,397.984 	"/>
	<polygon class="st67" points="296.985,331.032 285.73,331.032 278.48,367.345 302.552,367.345 	"/>
	<polygon class="st9" points="278.48,367.345 272.375,397.984 307.24,397.984 302.552,367.345 	"/>
	<path class="st68" d="M315.65,431.565h-55.532c-3.436,0-6.222-2.785-6.222-6.222l0,0c0-3.436,2.786-6.222,6.222-6.222h55.532
		c3.436,0,6.222,2.786,6.222,6.222l0,0C321.871,428.78,319.086,431.565,315.65,431.565z"/>
	<path class="st13" d="M526.426,184.963c-4.014,0-6.318,3.116-6.755,6.755c-0.071,0.598-0.228,1.192-0.449,1.77
		c-0.182-0.068-0.362-0.139-0.547-0.199c-1.497-0.48-4.13-0.134-5.371-0.835c-1.41-0.796-1.898-2.926-2.398-4.33
		c-2.466-6.937-13.262-6.177-13.27,1.796c-0.004,4.552,0.361,9.225,2.879,13.16c1.066,1.665,2.532,3.107,4.16,4.216
		c0.974,0.663,2.082,1.05,2.947,1.774c1.612,2.479,4.278,4.027,7.47,3.133c1.149-0.322,2.269-1.059,3.165-2.026
		c1.534,0.339,3.159,0.137,4.57-0.862c6.22-4.403,9.448-10.066,10.354-17.597C533.618,188.09,529.764,184.963,526.426,184.963z"/>
	<rect x="504.426" y="291.152" class="st12" width="22.6" height="14.468"/>
	<path class="st15" d="M469.9,280.294c-0.186-5.147-4.516-10.061-9.937-9.772c-5.216,0.277-9.972,4.418-9.772,9.937
		c0.154,4.276,0.308,8.552,0.462,12.828c0.185,5.147,4.515,10.061,9.937,9.772c5.216-0.277,9.971-4.418,9.772-9.937
		C470.207,288.845,470.053,284.569,469.9,280.294z"/>
	<path class="st69" d="M475.667,192.541c-26.345,23.064-26.927,52.516-25.537,84.61c0.561,12.959,21.04,13.028,20.476,0
		c-1.154-26.664-2.56-50.969,19.54-70.317C500.024,198.186,485.5,183.933,475.667,192.541z"/>
	<path class="st12" d="M514.96,415.407V286.871c0-8.943-7.317-16.262-16.26-16.262c-8.943,0-16.262,7.319-16.262,16.262v128.537
		H514.96z"/>
	<path class="st12" d="M550.571,415.407V286.871c0-8.943-7.319-16.262-16.262-16.262c-8.943,0-16.262,7.319-16.262,16.262v128.537
		H550.571z"/>
	<rect x="492.202" y="208.856" class="st19" width="1.47" height="18.184"/>
	<rect x="521.387" y="208.856" class="st19" width="1.47" height="18.184"/>
	<rect x="550.57" y="208.856" class="st19" width="1.47" height="18.184"/>
	<polygon class="st13" points="514.872,204.04 499.048,185.048 499.048,166.059 530.697,166.059 530.697,185.048 	"/>
	<path class="st14" d="M492.717,147.068c0,8.44-12.66,8.44-12.66,0C480.057,138.628,492.717,138.628,492.717,147.068"/>
	<path class="st14" d="M549.819,147.068c0,8.44-12.66,8.44-12.66,0C537.158,138.628,549.819,138.628,549.819,147.068"/>
	<path class="st15" d="M543.358,128.078c0-24.049-56.969-15.825-56.969,0v21.769c0,15.387,12.051,28.31,27.432,28.854
		c16.312,0.577,29.538-12.293,29.538-28.467V128.078z"/>
	<path class="st54" d="M514.872,99.592c-19.302,0-31.652,15.514-31.652,34.816v7.287l6.332,5.373v-15.825l37.981-12.66l12.66,12.66
		v15.825l6.332-5.373v-7.287c0-12.66-3.167-25.32-18.992-28.485l-3.164-6.332H514.872z"/>
	<path class="st16" d="M530.698,147.068c0,4.22-6.332,4.22-6.332,0C524.367,142.848,530.698,142.848,530.698,147.068"/>
	<path class="st16" d="M505.377,147.068c0,4.22-6.332,4.22-6.332,0C499.046,142.848,505.377,142.848,505.377,147.068"/>
	<path class="st69" d="M532.102,185.764c0.032,0.41,0.065,0.82,0.065,1.237c0,9.127-10.458,22.222-13.91,23.176
		c-8.829,2.439-19.871-14.016-19.871-23.176c0-0.519,0.032-1.032,0.081-1.541c-4.785,3.597-37.464,32.436-18.411,137.271h74.826
		C564.422,213.811,539.032,189.813,532.102,185.764z"/>
	<rect x="481.447" y="208.856" class="st60" width="22.979" height="11.064"/>
	<path class="st8" d="M498.788,403.372c-9.558,0-17.306,8.228-17.306,17.306h34.613
		C516.095,411.601,508.346,403.372,498.788,403.372z"/>
	<path class="st8" d="M533.966,403.372c-9.558,0-17.306,8.228-17.306,17.306h34.613
		C551.272,411.601,543.524,403.372,533.966,403.372z"/>
	<path class="st70" d="M585.545,306.838h-50.452c-4.363,0-7.9-3.537-7.9-7.9v-28.929c0-4.363,3.537-7.9,7.9-7.9h50.452
		c4.363,0,7.9,3.537,7.9,7.9v28.929C593.444,303.301,589.908,306.838,585.545,306.838z"/>
	<path class="st15" d="M579.79,278.595c0.679-5.106-2.765-10.676-8.158-11.3c-5.188-0.601-10.572,2.684-11.3,8.158
		c-0.565,4.241-1.13,8.482-1.695,12.724c-0.68,5.105,2.764,10.675,8.159,11.3c5.188,0.601,10.571-2.684,11.3-8.158
		C578.66,287.077,579.225,282.835,579.79,278.595z"/>
	<path class="st69" d="M553.073,189.137c27.826,23.064,28.44,59.325,26.972,91.419c-0.593,12.959-22.223,13.028-21.627,0
		c1.219-26.664,2.704-57.777-20.638-77.126C527.346,194.782,542.687,180.529,553.073,189.137z"/>
	<path class="st71" d="M491.792,227.29c0,0-1.517-17.76-1.551-18.24c-0.3-4.398-1.376-26.716,7.716-26.716"/>
	<path class="st72" d="M486.342,226.571c-0.457,3.597,2.57,6.626,6.168,6.17c2.45-0.31,4.427-2.29,4.734-4.74
		c0.45-3.594-2.571-6.614-6.164-6.163C488.631,222.146,486.652,224.122,486.342,226.571z"/>
	<path class="st73" d="M488.5,226.634c-0.448,2.363,1.586,4.396,3.949,3.948c1.32-0.25,2.385-1.314,2.635-2.634
		c0.449-2.363-1.586-4.399-3.949-3.95C489.815,224.248,488.751,225.313,488.5,226.634z"/>
	<path class="st74" d="M490.105,226.815c-0.351,1.332,0.831,2.513,2.163,2.162c0.585-0.154,1.058-0.626,1.212-1.211
		c0.352-1.332-0.831-2.516-2.163-2.164C490.732,225.757,490.259,226.23,490.105,226.815z"/>
	<path class="st72" d="M548.926,238.846c0.826-0.299,4.997-1.833,5.965-2.623c1.492-1.22,1.449-15.47-1.189-19.179
		c-2.77-3.896-13.511-7.809-13.967-7.973l-0.526,1.456c0.107,0.039,10.74,3.912,13.231,7.414c2.355,3.312,2.074,15.618,1.401,17.137
		c-0.706,0.491-3.561,1.632-5.442,2.314L548.926,238.846z"/>
	<path class="st73" d="M544.837,238.159c0,0.895,0.726,1.621,1.622,1.621h1.746c0.896,0,1.622-0.726,1.622-1.621l0,0
		c0-0.897-0.726-1.622-1.622-1.622h-1.746C545.562,236.537,544.837,237.263,544.837,238.159L544.837,238.159z"/>
	<path class="st72" d="M530.017,238.846c-0.826-0.299-4.997-1.833-5.965-2.623c-1.492-1.22-1.449-15.47,1.189-19.179
		c2.77-3.896,13.511-7.809,13.967-7.973l0.526,1.456c-0.107,0.039-10.74,3.912-13.231,7.414c-2.355,3.312-2.074,15.618-1.401,17.137
		c0.706,0.491,3.561,1.632,5.442,2.314L530.017,238.846z"/>
	<path class="st73" d="M534.107,238.159c0,0.895-0.726,1.621-1.622,1.621h-1.746c-0.896,0-1.622-0.726-1.622-1.621l0,0
		c0-0.897,0.726-1.622,1.622-1.622h1.746C533.381,236.537,534.107,237.263,534.107,238.159L534.107,238.159z"/>
	<path class="st74" d="M536.656,209.233c-0.386,2.023,1.355,3.765,3.378,3.381c1.129-0.214,2.04-1.124,2.254-2.253
		c0.383-2.02-1.354-3.76-3.375-3.38C537.783,207.193,536.872,208.103,536.656,209.233z"/>
	<path class="st71" d="M539.472,209.798c0,0,2.426-27.463-7.659-27.463"/>
	<path class="st75" d="M462.142,408.054h-33.581c-6.353,0-11.502-5.15-11.502-11.502v-55.976c0-6.353,5.15-11.503,11.502-11.503
		h33.581c6.353,0,11.503,5.15,11.503,11.503v55.976C473.645,402.904,468.495,408.054,462.142,408.054z"/>
	<path class="st53" d="M462.142,420.781h-33.581c-6.353,0-11.502-5.15-11.502-11.503v-55.976c0-6.353,5.15-11.503,11.502-11.503
		h33.581c6.353,0,11.503,5.15,11.503,11.503v55.976C473.645,415.631,468.495,420.781,462.142,420.781z"/>
	<rect x="441.127" y="367.279" class="st9" width="5.971" height="25.04"/>
	
		<rect x="441.113" y="367.335" transform="matrix(4.503668e-11 1 -1 4.503668e-11 823.9114 -64.3132)" class="st9" width="5.998" height="24.928"/>
	<path class="st53" d="M453.799,323.727c-1.961-2.039-6.484-1.555-9.122-1.483c-2.889,0.079-6.429,0.158-8.991,1.565
		c-3.158,1.734-2.754,4.452-2.933,7.407c-0.201,3.314,5.348,3.928,5.549,0.601c0.069-1.138-0.408-2.941,0.711-3.765
		c0.619-0.456,2.394-0.402,3.112-0.478c2.262-0.239,5.029-0.53,7.374-0.086c0.368,1.292,0.355,2.736,0.293,4.014
		c-0.161,3.312,5.388,3.929,5.549,0.601C455.46,329.651,455.702,325.705,453.799,323.727z"/>
	
		<rect x="887.771" y="99.42" transform="matrix(0.9996 0.0284 -0.0284 0.9996 7.7554 -25.1702)" class="st23" width="3.537" height="321.767"/>
	
		<rect x="893.556" y="99.584" transform="matrix(0.9996 0.0284 -0.0284 0.9996 7.7624 -25.3345)" class="st23" width="3.537" height="321.767"/>
	<polygon class="st23" points="893.823,421.257 890.305,420.79 910.967,100.08 914.485,100.548 	"/>
	<polygon class="st23" points="906.422,421.529 902.883,421.638 905.439,100.009 908.978,99.9 	"/>
	<path class="st44" d="M899.376,244.453c0.13-4.808-3.221-8.791-8.073-9.382c-5.765-0.703-11.778-0.387-17.381,1
		c-2.262,0.56-4.22,1.568-5.579,3.518c-1.205,1.729-1.861,4.34-1.368,6.452c0.51,2.188,1.671,4.357,3.644,5.607
		c1.878,1.189,4.308,2.025,6.522,1.477c2.383-0.59,4.805-0.968,7.257-1.139c1.896-0.018,3.789,0.086,5.678,0.316
		C894.611,252.854,899.253,249.011,899.376,244.453z"/>
	<path class="st40" d="M823.418,188.016c7.471-18.343,35.817-18.343,43.291,0c1.944,4.415,4.312,9.593,7.368,9.851l0,0
		c3.036,0.306,5.823-7.387,2.878-14.514c-11.01-27.025-52.771-27.025-63.782,0c-2.945,7.128-0.163,14.825,2.878,14.514l0,0
		C819.101,197.609,821.477,192.431,823.418,188.016z"/>
	<path class="st41" d="M869.43,192.547c-0.053-2.632,0.385-5.207,0.871-7.775c-0.478-0.907-0.945-1.819-1.44-2.717
		c-1.339-2.427-1.415-5.105-0.47-7.423c-6.978-1.197-15.107-1.892-23.814-1.892c-8.952,0-17.281,0.739-24.384,2
		c0.622,0.841,0.885,1.968,0.364,3.153c-5.551,12.624-6.694,25.15-6.137,38.793c0.032,0.785-0.2,1.4-0.578,1.863
		c-1.384,1.696,0,10.501,0.001,12.843c0.002,4.519-0.005,9.038,0.016,13.557c0.063,13.457-0.017,26.938-0.017,40.399h61.197v-74.09
		c-0.934-1.857-1.817-3.742-2.608-5.682C870.733,201.409,869.521,197.078,869.43,192.547z"/>
	<path class="st41" d="M875.54,285.552l-0.47-6.702h-30.884h-30.343v10.608c1.842,39.974,1.388,102.634,2.039,124.962l27.564-0.773
		c-0.954-32.738-1.28-73.216-1.611-107.065h2.351h4.431c0.571,23.667-0.623,74.638-1.569,107.065l20.043,0.773
		C867.765,391.237,878.814,321.378,875.54,285.552z"/>
	<path class="st8" d="M850.87,421.594c0.3-0.909,0.466-1.878,0.466-2.885c0-5.175-4.28-9.371-9.56-9.371h-16.511
		c-5.279,0-9.559,4.195-9.559,9.371c0,1.007,0.166,1.976,0.466,2.885H850.87z"/>
	<rect x="811.414" y="278.137" class="st8" width="65.445" height="11.533"/>
	<path class="st8" d="M884.685,421.594c0.3-0.909,0.466-1.878,0.466-2.885c0-5.175-4.28-9.371-9.56-9.371h-16.511
		c-5.279,0-9.559,4.195-9.559,9.371c0,1.007,0.167,1.976,0.466,2.885H884.685z"/>
	<path class="st43" d="M833.25,173.121c-0.015,0.17,0.069,0.702,0.069,0.874c0,4.478,4.973,8.109,11.109,8.109
		c6.134,0,11.124-4.456,11.124-8.934c0-0.002-5.474-0.414-10.974-0.43C839.02,172.724,833.435,173.103,833.25,173.121z"/>
	<polygon class="st30" points="845.32,188.385 832.603,176.632 832.58,163.127 857.969,163.085 857.992,176.589 	"/>
	
		<ellipse transform="matrix(0.999 -0.0437 0.0437 0.999 -5.5599 35.8971)" class="st30" cx="818.981" cy="145.225" rx="5.923" ry="5.252"/>
	<path class="st44" d="M871.377,126.754c-1.067-19.928-53.94-10.372-53.238,2.739c0.154,2.884,0.828,15.47,0.983,18.355
		c0.702,13.111,13.094,22.99,27.883,22.23c14.788-0.761,26.057-11.858,25.355-24.968
		C872.205,142.225,871.531,129.639,871.377,126.754z"/>
	
		<ellipse transform="matrix(0.999 -0.0437 0.0437 0.999 -5.4483 37.7511)" class="st26" cx="861.48" cy="143.6" rx="2.962" ry="2.626"/>
	
		<ellipse transform="matrix(0.999 -0.0437 0.0437 0.999 -5.4761 36.4809)" class="st26" cx="832.387" cy="143.6" rx="2.962" ry="2.626"/>
	<path class="st76" d="M842.911,125.268c5.083-0.401,10.182-0.397,15.265-0.795c5.43-0.425,10.259,1.371,13.69,4.502
		c7.477-6.339,5.446-16.294,3.041-24.441c-2.398-8.121-8-15.839-16.839-19.192c-8.615-3.268-17.7-1.427-24.798,3.417
		c-4.291,1.901-8.251,4.383-11.235,7.824c-5.914,6.819-7.703,16.38-7.289,24.78c0.278,5.641,3.698,10.86,9.451,13.253
		c1.165,0.485,2.362,0.811,3.578,1.03C830.235,130.117,836.311,125.789,842.911,125.268z"/>
	<path class="st77" d="M858.413,128.45C857.839,128.317,856.964,128.306,858.413,128.45L858.413,128.45z"/>
	<path class="st77" d="M879.376,125.585c-4.712-6.152-15.25-9.002-25.369-8.907c-11.017,0.103-21.244,4.418-29.099,9.661
		c-3.25,2.17-2.608,6.322,0.673,7.984c3.811,1.93,8.409,1.313,11.877-1.002c0.192-0.128,1.412-1.03,0.57-0.381
		c-0.822,0.634,0.508-0.282,0.622-0.347c0.733-0.419,1.486-0.821,2.258-1.206c0.857-0.427,1.735-0.832,2.637-1.212
		c0.027-0.012,0.055-0.022,0.082-0.034c0.279-0.064,0.834-0.326,0.997-0.381c0.938-0.317,1.896-0.606,2.869-0.862
		c0.786-0.207,1.988-0.32,2.769-0.597c0.432-0.053,0.861-0.11,1.295-0.153c0.882-0.088,1.749-0.113,2.628-0.162
		c0.307,0.013,0.616,0.023,0.921,0.044c0.882,0.06,1.757,0.154,2.617,0.282c0.338,0.05,0.681,0.138,1.025,0.17
		c-0.123-0.011-0.234-0.022-0.335-0.032c0.01,0.002,0.021,0.004,0.031,0.007c0.818,0.201,1.613,0.434,2.383,0.7
		c0.214,0.074,0.426,0.164,0.64,0.248l0.003,0.002c0.668,0.349,1.297,0.715,1.942,1.083c0.207,0.176,0.42,0.349,0.616,0.532
		c0.5,0.47,0.93,0.969,1.326,1.485c0.875,1.142,3.419,1.991,5.238,2.171c2.042,0.203,4.704-0.191,6.423-1.115
		C881.067,131.385,881.487,128.341,879.376,125.585z"/>
	<path class="st30" d="M858.159,166.907c-1.043,0.712-2.148,1.262-3.331,1.693c-0.127,4.814-0.187,10.749-4.435,13.936
		c-4.453,3.34-9.726,1.052-11.822-3.697c-0.513-1.162-1.612-1.254-2.473-0.77c-0.087-0.365-0.167-0.733-0.227-1.109
		c-0.408-2.546-4.28-1.465-3.874,1.068c1.499,9.347,10.098,15.697,19.352,11.862c8.954-3.71,10.931-14.223,7.223-22.398
		C858.464,167.251,858.322,167.058,858.159,166.907z"/>
	<path class="st52" d="M869.821,231.736l-19.135,0.702c-3.1,0.114-6.201,0.227-9.302,0.341c-1.745,0.064-3.516,0.197-5.281,0.228
		c-0.416-2.043-0.656-4.146-0.986-6.153c-0.513-3.12-0.982-6.247-1.416-9.379c-1.606-12.382-2.595-24.836-2.959-37.317
		c-0.081-2.775-1.13-5.533-3.113-7.516c-0.785-0.785-1.792-1.467-2.885-2c-1.929,0.633-3.723,1.426-5.399,2.449
		c-0.451,0.313-0.901,0.626-1.359,0.928c-3.792,6.51-6.214,13.889-7.713,21.528c0.724,10.109,1.842,20.185,3.303,30.225
		c0.528,3.63,1.111,7.253,1.747,10.866c0.794,4.507,1.933,8.884,5.222,12.304c6.414,6.672,15.96,5.274,24.295,4.968
		c8.327-0.305,16.654-0.611,24.981-0.917c2.787-0.102,5.518-1.115,7.516-3.113c1.843-1.843,3.232-4.868,3.113-7.516
		C880.199,236.781,875.772,231.518,869.821,231.736z"/>
	<path class="st44" d="M859.557,224.669c-2.642-4.019-7.669-5.371-11.987-3.083c-5.132,2.72-9.885,6.416-13.689,10.757
		c-1.536,1.753-2.566,3.699-2.566,6.076c0,2.108,0.954,4.625,2.566,6.076c1.67,1.503,3.862,2.619,6.195,2.517
		c2.221-0.098,4.692-0.801,6.195-2.517c1.618-1.846,3.389-3.541,5.303-5.083c1.545-1.099,3.158-2.096,4.84-2.987
		C860.451,234.286,862.062,228.479,859.557,224.669z"/>
	<path class="st41" d="M894.589,218.971c-1.006-7.491-3.842-14.831-7.541-21.394c-2.848-5.053-6.416-9.819-10.485-14.013
		c-2.647-1.383-5.37-2.61-8.119-3.786c-1.538,5.099-4.107,9.887-6.675,14.636c2.009,1.899,3.899,3.923,5.635,6.083
		c2.563,3.483,4.752,7.22,6.52,11.168c1.215,3.044,2.238,6.224,2.829,9.45c-1.214-0.078-2.427-0.211-3.622-0.296
		c-2.694-0.192-5.389-0.385-8.084-0.577c-5.39-0.385-10.78-0.77-16.169-1.155c-2.213-0.158-4.867,1.122-6.394,2.649
		c-1.568,1.568-2.749,4.141-2.649,6.394c0.105,2.339,0.873,4.764,2.649,6.394c1.839,1.688,3.894,2.47,6.394,2.648
		c8.983,0.641,17.966,1.283,26.948,1.925c2.592,0.185,4.979,0.185,7.565-0.361c3.244-0.685,6.07-2.69,8.064-5.271
		C894.693,229.271,895.276,224.08,894.589,218.971z"/>
	<path class="st78" d="M869.701,218.435c-0.111,1.023-0.222,2.046-0.333,3.068c0.862,0.022,1.724,0.029,2.586,0.044
		c0.219-3.693,0.507-7.382,0.898-11.06c0.942-8.859,2.378-17.665,4.3-26.365c0.384-1.735,0.949-3.562,0.737-5.358
		c-0.013-0.109-0.03-0.218-0.05-0.326c-0.04,0.021-0.079,0.041-0.118,0.061c0.008,0.023,0.014,0.046,0.021,0.068
		c-1.798,0.942-3.756,1.695-5.29,2.657l-0.053,0.035c1.102,3.336,0.577,6.894,0.201,10.357
		C871.634,200.556,870.668,209.496,869.701,218.435z"/>
	<path class="st78" d="M872.398,181.259c-0.049,0.032-0.1,0.066-0.15,0.099c-0.094-0.25-0.196-0.5-0.309-0.749
		c-0.61-1.331-1.418-2.578-2.22-3.829c1.073-0.805,2.296-1.42,3.521-1.96c0.334,0.199,0.676,0.389,1.025,0.564
		c0.859,0.432,1.775,0.814,2.482,1.484c0.477,0.453,0.792,1.015,0.972,1.63c-1.503,0.779-3.086,1.442-4.412,2.195
		c-0.31,0.176-0.615,0.362-0.912,0.559C872.397,181.255,872.398,181.256,872.398,181.259z"/>
	<path class="st79" d="M877.741,178.567c-1.798,0.942-3.756,1.695-5.289,2.657c-0.018,0.012-0.036,0.023-0.053,0.035
		c-0.001-0.003-0.002-0.004-0.002-0.006c0.297-0.197,0.602-0.383,0.912-0.559c1.326-0.752,2.909-1.415,4.412-2.195
		C877.728,178.522,877.734,178.544,877.741,178.567z"/>
	<path class="st78" d="M873.048,174.866c-1.166,0.523-2.301,1.098-3.322,1.861c-1.208-1.895-2.351-3.832-2.716-6.086
		c-0.119-0.737-0.138-1.444-0.037-2.175c0.024,0.022,0.047,0.072,0.087,0.08l0.189,0.04
		C868.6,171.118,870.605,173.313,873.048,174.866z"/>
	<path class="st79" d="M881.049,168.764c-0.806-1.036-1.668-2.114-2.643-2.997c-0.455-0.412-0.995-0.792-1.575-0.961
		c-0.353,0.046-0.706,0.096-1.058,0.142c-0.131,0.19-0.245,0.387-0.346,0.557c-0.046,0.077-0.102,0.133-0.165,0.174
		c-0.105,0.902,0.242,1.921,0.786,2.612c1.218,1.549,3.944,2.8,3.684,5.119c-0.248,2.223-3.066,3.09-4.861,3.813
		c-0.413,0.273-0.835,0.532-1.255,0.78c-0.655,0.385-1.548,0.938-2.44,1.194c-0.513,0.349-1.042,0.664-1.6,0.919
		c-0.08,0.067-0.161,0.134-0.238,0.204c-1.726,1.538-2.576,3.619-3.123,5.819c-0.642,2.586-1.162,5.209-1.735,7.811
		c-1.178,5.348-2.356,10.696-3.533,16.046c-0.823,3.736-1.646,7.471-2.469,11.207c0.934,0.019,1.867,0.038,2.799,0.064
		c0.654-2.053,1.215-4.143,1.804-6.21c1.593-5.597,3.121-11.215,4.359-16.902c0.576-2.645,0.908-5.395,1.722-7.982
		c0.402-1.28,0.987-2.516,1.882-3.528c0.461-0.521,0.99-0.971,1.554-1.373c0.015,0.042,0.027,0.084,0.042,0.126
		c1.992-1.756,4.846-2.611,7.164-4.026c0.057-0.035,0.115-0.058,0.171-0.069c1.848-1.196,3.327-2.739,3.654-5.11
		C884.008,173.45,882.686,170.863,881.049,168.764z"/>
	<circle class="st9" cx="874.852" cy="180.299" r="1.912"/>
	<rect x="885.152" y="266.474" class="st80" width="25.877" height="8.296"/>
	<path class="st9" d="M856.795,94.066c-1.08,0.014-2.159,0.028-3.239,0.043c-0.15-0.573-0.768-1.077-1.856-1.077
		c-1.118,0-1.74,0.533-1.868,1.126c-0.851,0.011-1.701,0.022-2.552,0.034c-2.52,0.033-2.528,2.748,0,2.715
		c0.679-0.009,1.357-0.018,2.036-0.027c0.073,1.722,0.134,3.444,0.183,5.166c-2.061-0.061-4.162-0.055-5.929,0.67
		c-1.347,0.553-2.018,1.505-2.188,2.548c-0.143,0.875,0.33,1.795,0.087,2.648c-0.035,0.124-0.048,0.249-0.042,0.371
		c-0.035,0.381,0.181,0.771,0.552,1.103c1.32,1.181,3.918,0.343,4.367-0.896c0.192-0.528,0.078-1.102,0.042-1.638l-0.033-0.501
		c1.082-0.019,2.163-0.037,3.245-0.056c0.046,2.619,0.067,5.238,0.059,7.857c-0.004,1.263,2.046,1.614,3.183,1.049
		c0.954-0.022,1.884-0.457,1.882-1.309l-0.041-17.014c0-0.024-0.004-0.047-0.005-0.07c0.707-0.009,1.413-0.019,2.12-0.028
		C859.315,96.747,859.324,94.032,856.795,94.066z"/>
	<circle class="st78" cx="534.208" cy="283.205" r="2.395"/>
	<path class="st9" d="M87.871,278.424c0,0-4.565-8.831-13.316-7.99c-8.75,0.841-24.348,12.195-28.914,5.046
		s-22.066,2.523-20.924,14.718s28.914,3.785,41.088,12.615c12.174,8.831,45.273,20.605,45.653,6.308
		C111.839,294.824,95.48,290.198,87.871,278.424z"/>
	<path class="st9" d="M153.213,292.701c0,0-9.77-3.125-8.742-10.388s2.355-10.656-0.076-13.78c-2.431-3.124,0.461-6.718,6.247-3.153
		s1.24,12.338,15.328,14.963c14.087,2.625,24.403,13.054,18.358,15.291c-6.045,2.236-10.182-4.462-11.322,0.908
		c-1.14,5.37-6.77,12.818-11.674,7.234C156.427,298.192,158.483,295.577,153.213,292.701z"/>
</g>
<g>
</g>
<g>
</g>
<g>
</g>
<g>
</g>
<g>
</g>
<g>
</g>
<g>
</g>
<g>
</g>
<g>
</g>
<g>
</g>
<g>
</g>
<g>
</g>
<g>
</g>
<g>
</g>
<g>
</g>
</svg>
