<?xml version="1.0" encoding="utf-8"?>
<!-- Generator: Adobe Illustrator 22.0.1, SVG Export Plug-In . SVG Version: 6.00 Build 0)  -->
<svg version="1.1" id="Layer_1" xmlns="http://www.w3.org/2000/svg" xmlns:xlink="http://www.w3.org/1999/xlink" x="0px" y="0px"
	 viewBox="0 0 319.702 862.537" style="enable-background:new 0 0 319.702 862.537;"
	 xml:space="preserve" preserveAspectRatio="none">
<style type="text/css">
	.st0{fill:#CA0538;}
	.st1{fill:#D12652;}
	.st2{fill:#A50A2D;}
	.st3{fill:#7B0A1D;}
	.st4{fill:#FFFFFF;}
</style>
<g>
	<g>
		<path class="st0" d="M157.995,827.158c24.564-7.422,45.052-4.658,62.333,1.841c51.545-22.016,92.087-46.656,99.373-51.169V53.86
			c0,0-30.238-14.125-99.736-15.178S139.071,51.19,95.712,53.777C33.805,57.471,2.827,40.085,0,38.41v824.127h23.281
			C44.411,847.762,95.466,818.434,157.995,827.158z"/>
		<path class="st1" d="M244.096,840.827c35.702-0.714,61.596-11.443,75.606-19.066v-43.931
			c-7.286,4.513-47.829,29.153-99.373,51.169C229.026,832.271,236.911,836.487,244.096,840.827z"/>
		<path class="st2" d="M127.881,840.557c10.671-6.209,20.692-10.552,30.115-13.399c-62.53-8.724-113.584,20.604-134.714,35.378
			H91.71C100.746,856.714,112.522,849.493,127.881,840.557z"/>
		<path class="st3" d="M262.955,852.946c9.15,5.882,21.208,8.596,33.291,9.591h23.456v-40.776
			c-14.01,7.623-39.904,18.352-75.606,19.066C250.996,844.996,257.25,849.278,262.955,852.946z"/>
		<path class="st2" d="M200.961,836.92c6.594-2.573,13.062-5.227,19.368-7.92c-17.281-6.499-37.769-9.263-62.333-1.841
			c7.652,1.068,15.474,2.703,23.435,5.007C188.135,834.105,194.646,835.675,200.961,836.92z"/>
		<path class="st3" d="M244.096,840.827c-7.184-4.34-15.07-8.556-23.767-11.827c-6.305,2.693-12.774,5.347-19.368,7.92
			C216.588,840.003,231.001,841.089,244.096,840.827z"/>
		<path class="st1" d="M181.431,832.165c-7.961-2.304-15.784-3.939-23.435-5.007c-9.422,2.847-19.444,7.19-30.115,13.399
			c-15.359,8.936-27.134,16.156-36.171,21.979h19.006c30.179-4.67,61.396-14.359,90.245-25.616
			C194.646,835.675,188.135,834.105,181.431,832.165z"/>
		<path class="st0" d="M244.096,840.827c-13.095,0.262-27.508-0.825-43.135-3.907c-28.849,11.257-60.066,20.947-90.245,25.616
			h185.531c-12.084-0.995-24.141-3.709-33.291-9.591C257.25,849.278,250.996,844.996,244.096,840.827z"/>
	</g>
	<g>
		<path class="st4" d="M95.788,53.777c43.359-2.587,54.756-16.148,124.253-15.095s99.661,15.178,99.661,15.178V0H0v38.41
			C2.827,40.085,33.88,57.471,95.788,53.777z"/>
	</g>
</g>
<g>
</g>
<g>
</g>
<g>
</g>
<g>
</g>
<g>
</g>
<g>
</g>
<g>
</g>
<g>
</g>
<g>
</g>
<g>
</g>
<g>
</g>
<g>
</g>
<g>
</g>
<g>
</g>
<g>
</g>
</svg>
