<?xml version="1.0" encoding="utf-8"?>
<!-- Generator: Adobe Illustrator 22.0.1, SVG Export Plug-In . SVG Version: 6.00 Build 0)  -->
<svg version="1.1" id="Layer_1" xmlns="http://www.w3.org/2000/svg" xmlns:xlink="http://www.w3.org/1999/xlink" x="0px" y="0px"
	 width="164.609px" height="278.027px" viewBox="0 0 164.609 278.027" style="enable-background:new 0 0 164.609 278.027;"
	 xml:space="preserve">
<style type="text/css">
	.st0{opacity:0.23;fill:#666666;}
	.st1{fill:#F8B44F;}
	.st2{fill:#7E5613;}
	.st3{fill:#794819;}
	.st4{fill:#CA0538;}
	.st5{fill:#FFFFFF;}
</style>
<g>
	<ellipse class="st0" cx="82.304" cy="266.085" rx="82.304" ry="11.941"/>
	<g>
		<g>
			<path class="st1" d="M145.186,38.13c0-22.819-54.056-15.015-54.056,0v20.275c0,15.354,12.467,28.196,27.814,27.766
				c14.647-0.41,26.242-12.266,26.242-27.018V38.13z"/>
			<path class="st2" d="M143.043,29.346c0.957-0.043,1.844,0.069,2.66,0.305c0.094,0.027,0.177-0.064,0.14-0.155
				c-2.401-5.947-7.032-10.643-15.619-12.376c-0.035-0.007-0.065-0.029-0.081-0.061l-2.945-5.893
				c-0.02-0.04-0.061-0.065-0.105-0.065h-8.82c-16.652,0-30.151,13.499-30.151,30.151v9.783c0,0.011,0.001,0.021,0.004,0.031
				l3.315,11.991c0.024,0.086,0.13,0.115,0.195,0.053l22.805-21.972l0.01-0.009l15.636-11.946c0.047-0.036,0.113-0.031,0.154,0.01
				l4.595,4.594c0.051,0.051,0.132,0.043,0.173-0.016C136.805,31.183,140.125,29.477,143.043,29.346z"/>
			<path class="st3" d="M142.922,56.15c0,4.004-6.008,4.004-6.008,0C136.915,52.145,142.922,52.145,142.922,56.15"/>
			<path class="st3" d="M122.309,56.15c0,4.004-6.008,4.004-6.008,0C116.301,52.145,122.309,52.145,122.309,56.15"/>
			<path class="st4" d="M151.596,34.405c-1.382-14.775-12.283-26.779-26.514-29.817c-0.034-0.007-0.062-0.03-0.076-0.061
				C123.802,1.86,121.125,0,118.007,0c-3.115,0-5.795,1.86-6.998,4.527c-0.014,0.032-0.042,0.054-0.076,0.061
				C96.727,7.621,85.835,19.591,84.425,34.333c-0.004,0.044-0.036,0.082-0.077,0.096c-2.723,0.943-4.27,2.014-4.27,3.152
				c0,3.78,16.982,6.841,37.93,6.841c20.95,0,37.93-3.061,37.93-6.841C155.937,36.434,154.365,35.354,151.596,34.405"/>
			<g>
				<path class="st5" d="M131.368,36.25l-1.896-4.329h-1.505v4.329h-4.164V22.5h7.339c3.216,0,4.947,2.144,4.947,4.721
					c0,2.371-1.381,3.628-2.474,4.164l2.494,4.865H131.368z M131.863,27.2c0-0.742-0.66-1.072-1.361-1.072h-2.535v2.165h2.535
					C131.203,28.293,131.863,27.963,131.863,27.2z"/>
				<path class="st5" d="M138.502,30.368v-5.747l-1.102,1.174l-0.516-0.525l1.721-1.771h0.752v6.87H138.502z"/>
				<path class="st5" d="M140.839,29.39l0.525-0.577c0.453,0.588,1.061,0.917,1.896,0.917c0.937,0,1.586-0.639,1.586-1.473
					c0-0.906-0.649-1.483-1.576-1.483c-0.598,0-1.122,0.196-1.586,0.639l-0.628-0.216v-3.698h4.202v0.763h-3.348v2.39
					c0.34-0.33,0.917-0.618,1.606-0.618c1.154,0,2.194,0.772,2.194,2.193c0,1.391-1.071,2.267-2.451,2.267
					C142.106,30.492,141.354,30.069,140.839,29.39z"/>
			</g>
			<path class="st1" d="M108.111,56.15c0,8.009-12.013,8.009-12.013,0S108.111,48.141,108.111,56.15"/>
		</g>
		<path class="st1" d="M110.596,259.804c-2.585-1.328-5.271-2.458-7.716-4.046c-1.746-1.135-3.162-2.531-4.301-4.118
			c-0.471-1.396-0.754-2.868-0.802-4.389c-0.009-0.285-0.053-0.546-0.112-0.796c0.606-5.364,0.94-12.25,1.037-13.523
			c0.537-7.013,0.658-14.066,0.184-21.087c-0.472-6.966-1.526-13.904-3.346-20.649c-0.801-2.965-1.692-5.984-2.838-8.835
			c-1.119-2.784-3.449-5.542-3.62-8.613c-0.063-1.131,0.198-2.252,0.458-3.355c0.667-2.829,1.333-5.657,2-8.486
			c1.855-7.875,3.711-15.75,5.566-23.625c2.328-9.879,6.079-19.439,8.735-29.295c3.209-11.907,6.204-28.441-6.174-36.232
			c-2.155-1.356-6.326-3.696-8.946-3.454C74.291,70.819,63.921,79.707,56.514,93.04c-1.728,3.704-3.251,7.53-4.671,11.419
			c-1.42,3.89-2.736,7.842-3.972,11.843c-2.173,7.037-3.85,14.22-6.151,21.219c-2.221,6.76-5.448,12.956-8.201,19.49
			c-2.067,4.904-3.511,10.305-2.503,15.53c1.527,7.92,8.713,12.347,12.019,19.361c2.746,5.828,4.556,12.064,5.619,18.41
			c1.514,9.036,2.189,18.383,1.125,27.509c-0.462,3.958-1.724,7.564-2.464,11.42c-0.494,2.58-0.304,5.25-0.835,7.82
			c-0.482,2.332-1.654,4.331-1.998,6.703c-0.446,3.086,1.149,5.88,3.91,7.311c2.912,1.51,5.995,0.841,9.056,0.385
			c5.354-0.796,10.607-0.682,15.967-0.012c2.074,0.259,5.189,0.378,8.041-0.172c2.773,1.214,5.687,0.615,8.584,0.184
			c5.354-0.796,10.607-0.682,15.967-0.012c4.678,0.585,14.66,0.471,14.937-6.477C121.127,260.422,115.79,259.586,110.596,259.804z
			 M70.288,255.758c-1.746-1.135-3.162-2.531-4.301-4.118c-0.074-0.217-0.134-0.554-0.198-0.775
			c5.612-32.959-0.719-55.899-8.203-70.649h10.975c1.505,0,5.275,8.239,5.897,9.461c2.528,4.964,4.371,10.318,5.628,15.741
			c1.716,7.402,2.336,15.06,2.201,22.647c-0.085,4.756-0.507,9.497-1.09,14.216c-0.623,5.042-0.674,11.475-2.19,16.256
			c-0.137,0.432-0.304,0.846-0.48,1.249c-0.174,0.005-0.349,0.009-0.523,0.017C75.42,258.475,72.733,257.346,70.288,255.758z"/>
	</g>
</g>
<g>
</g>
<g>
</g>
<g>
</g>
<g>
</g>
<g>
</g>
<g>
</g>
<g>
</g>
<g>
</g>
<g>
</g>
<g>
</g>
<g>
</g>
<g>
</g>
<g>
</g>
<g>
</g>
<g>
</g>
</svg>
