<?xml version="1.0" encoding="UTF-8"?>
<!-- Generator: Adobe Illustrator 22.0.1, SVG Export Plug-In . SVG Version: 6.00 Build 0)  -->
<svg xmlns="http://www.w3.org/2000/svg" xmlns:xlink="http://www.w3.org/1999/xlink" id="Layer_1" x="0px" y="0px" width="57.132px" height="57.132px" viewBox="0 0 57.132 57.132" style="enable-background:new 0 0 57.132 57.132;" xml:space="preserve">
<style type="text/css">
	.st0{fill:#FFFFFF;}
	.st1{clip-path:url(#SVGID_2_);fill:#CA0538;}
</style>
<g>
	<circle class="st0" cx="28.588" cy="28.494" r="28.566"></circle>
	<g>
		<defs>
			<rect id="SVGID_1_" x="12.859" y="11.614" width="31.458" height="31.889"></rect>
		</defs>
		<clipPath id="SVGID_2_">
			<use xlink:href="#SVGID_1_" style="overflow:visible;"></use>
		</clipPath>
		<path class="st1" d="M31.617,19.117c0-4.144-3.359-7.503-7.504-7.503c-3.516,0-6.458,2.422-7.272,5.686    c-2.253,0.342-3.983,2.282-3.983,4.631c0,2.59,2.099,4.69,4.69,4.69H21.3c0.518,0,0.937-0.42,0.937-0.938v-2.579    c0-0.389-0.314-0.704-0.703-0.704h-1.435c-0.69,0-0.883-0.473-0.428-1.052l3.616-4.61c0.455-0.578,1.199-0.578,1.653,0l3.617,4.61    c0.455,0.579,0.262,1.052-0.428,1.052h-1.435c-0.389,0-0.704,0.315-0.704,0.704v2.579c0,0.518,0.42,0.938,0.938,0.938h4.69    c2.071,0,3.752-1.68,3.752-3.752S33.688,19.117,31.617,19.117"></path>
		<path class="st1" d="M40.648,36.166c0-2.966-1.763-5.515-4.297-6.67c-0.791-0.332-1.206,0.272-1.206,0.763v3.898    c0,0.38,0.308,0.634,0.688,0.634h1.404c0.674,0,0.862,0.517,0.419,1.083l-3.537,4.507c-0.445,0.567-1.172,0.567-1.615,0    l-3.537-4.507c-0.445-0.566-0.255-1.083,0.419-1.083h1.403c0.381,0,0.688-0.254,0.688-0.634v-3.898    c0-0.507-0.689-0.982-1.262-0.738h-0.003c-1.977,0.926-3.473,2.707-4.011,4.87c-2.204,0.334-3.894,2.231-3.894,4.526    c0,2.533,2.053,4.585,4.584,4.585h13.756c2.026,0,3.668-1.642,3.668-3.667C44.316,37.808,42.674,36.166,40.648,36.166"></path>
	</g>
</g>
<g>
</g>
<g>
</g>
<g>
</g>
<g>
</g>
<g>
</g>
<g>
</g>
<g>
</g>
<g>
</g>
<g>
</g>
<g>
</g>
<g>
</g>
<g>
</g>
<g>
</g>
<g>
</g>
<g>
</g>
</svg>
