<?xml version="1.0" encoding="UTF-8"?>
<!-- Generator: Adobe Illustrator 22.0.1, SVG Export Plug-In . SVG Version: 6.00 Build 0)  -->
<svg xmlns="http://www.w3.org/2000/svg" xmlns:xlink="http://www.w3.org/1999/xlink" id="Layer_1" x="0px" y="0px" width="57.132px" height="57.132px" viewBox="0 0 57.132 57.132" style="enable-background:new 0 0 57.132 57.132;" xml:space="preserve">
<style type="text/css">
	.st0{fill:#FFFFFF;}
	.st1{clip-path:url(#SVGID_2_);fill:#CA0538;}
	.st2{clip-path:url(#SVGID_2_);fill:#FFFFFF;}
	.st3{clip-path:url(#SVGID_2_);fill:#CA0337;}
</style>
<g>
	<circle class="st0" cx="28.566" cy="28.566" r="28.566"></circle>
	<g>
		<defs>
			<rect id="SVGID_1_" x="16.133" y="16.14" width="24.867" height="24.853"></rect>
		</defs>
		<clipPath id="SVGID_2_">
			<use xlink:href="#SVGID_1_" style="overflow:visible;"></use>
		</clipPath>
		<path class="st1" d="M22.364,18.636c0.003,0.667,0.572,1.234,1.24,1.233c0.666,0,1.236-0.567,1.24-1.234    c0.005-0.676-0.579-1.256-1.254-1.245C22.915,17.401,22.361,17.963,22.364,18.636 M18.637,18.627    c-0.002,0.664,0.568,1.239,1.231,1.242c0.678,0.005,1.255-0.573,1.25-1.251c-0.006-0.663-0.581-1.232-1.244-1.23    C19.209,17.391,18.638,17.963,18.637,18.627 M40.99,35.196c-0.398-0.321-0.744-0.6-1.088-0.879    c-0.401-0.326-0.798-0.659-1.206-0.977c-0.142-0.112-0.194-0.231-0.194-0.413c0.006-3.423,0.003-6.847,0.006-10.27    c0-0.414-0.107-0.783-0.404-1.081c-0.263-0.263-0.575-0.375-0.954-0.375c-4.355-0.006-8.71-0.02-13.065-0.031    c-1.311-0.003-2.621-0.003-3.932-0.003c-0.951,0-1.518,0.561-1.518,1.505c0,4.01,0,8.02,0.003,12.03    c0,0.638,0.338,1.143,0.913,1.329c0.216,0.07,0.457,0.086,0.685,0.086c3.588,0.006,7.175,0.006,10.762,0    c0.183,0,0.297,0.056,0.41,0.197c0.559,0.702,1.129,1.393,1.695,2.089c0.042,0.051,0.08,0.107,0.152,0.205    c-0.324,0-0.602,0-0.882,0c-4.113,0-8.227,0-12.34-0.001c-2,0-3.645-1.429-3.861-3.414c-0.073-0.674-0.022-1.361-0.022-2.043    c0-4.415,0.001-8.83,0.001-13.245c0-1.802,1.409-3.474,3.203-3.695c0.824-0.102,1.668-0.063,2.503-0.064    c5.105-0.004,10.21,0.001,15.315-0.003c1.855-0.002,3.516,1.383,3.755,3.225c0.099,0.764,0.06,1.548,0.061,2.323    c0.005,4.363,0.002,8.727,0.001,13.091C40.99,34.897,40.99,35.014,40.99,35.196"></path>
		<path class="st1" d="M38.128,36.885c-0.681-0.008-1.226,0.512-1.238,1.181c-0.013,0.718,0.5,1.26,1.201,1.272    c0.693,0.011,1.243-0.514,1.252-1.196C39.352,37.428,38.836,36.893,38.128,36.885 M24.092,27.421    c0.531,0.612,1.027,1.184,1.523,1.756c0.519,0.6,1.034,1.203,1.56,1.797c0.547,0.62,1.228,0.633,1.818,0.045    c0.683-0.682,1.367-1.365,2.048-2.049c0.573-0.574,0.557-1.262-0.056-1.799c-1.102-0.965-2.213-1.922-3.32-2.882    c-0.065-0.055-0.127-0.112-0.194-0.252c0.432-0.056,0.864-0.151,1.299-0.163c2.139-0.059,4.128,1.349,4.797,3.377    c0.215,0.652,0.316,1.321,0.238,2.009c-0.122,1.063,0.203,1.93,1.094,2.566c0.35,0.251,0.67,0.544,1.004,0.815    c1.411,1.148,2.824,2.292,4.232,3.444c1.066,0.871,1.159,2.303,0.218,3.306c-0.3,0.321-0.613,0.631-0.931,0.934    c-1.017,0.967-2.458,0.871-3.343-0.216c-1.415-1.737-2.851-3.459-4.236-5.22c-0.684-0.869-1.522-1.196-2.596-1.095    c-2.535,0.238-4.839-1.554-5.287-4.079C23.824,28.955,23.866,28.21,24.092,27.421"></path>
		<path class="st2" d="M18.636,18.627c0.001-0.663,0.573-1.236,1.237-1.239c0.663-0.003,1.239,0.566,1.244,1.23    c0.006,0.677-0.572,1.255-1.25,1.251C19.204,19.865,18.635,19.291,18.636,18.627"></path>
		<path class="st2" d="M22.364,18.636c-0.003-0.673,0.55-1.235,1.226-1.245c0.675-0.011,1.258,0.568,1.254,1.244    c-0.004,0.668-0.573,1.235-1.24,1.235C22.936,19.87,22.367,19.304,22.364,18.636"></path>
		<path class="st3" d="M38.129,36.885c0.707,0.008,1.223,0.543,1.214,1.257c-0.007,0.682-0.558,1.207-1.252,1.196    c-0.702-0.012-1.213-0.554-1.201-1.272C36.902,37.397,37.448,36.876,38.129,36.885"></path>
	</g>
</g>
<g>
</g>
<g>
</g>
<g>
</g>
<g>
</g>
<g>
</g>
<g>
</g>
<g>
</g>
<g>
</g>
<g>
</g>
<g>
</g>
<g>
</g>
<g>
</g>
<g>
</g>
<g>
</g>
<g>
</g>
</svg>
